Division,WeightClassKg,Place,Name,Team,BodyweightKg,Best3SquatKg,Best3BenchKg,Best3DeadliftKg,TotalKg,Equipment,Event,Sex,BirthDate
Boys,59.87,1,Richard Berlanga,Eustace,57.7,111.13,63.5,115.67,290.3,Single-ply,SBD,M,
Boys,67.13,1,Blake Scott,Eustace,64.05,111.13,65.77,124.74,301.64,Single-ply,SBD,M,
Boys,74.84,1,Kase Mumphrey,Crandall,73.8,183.7,120.2,190.51,494.42,Single-ply,SBD,M,
Boys,74.84,2,Logan Baker,Eustace,73.53,179.17,102.06,174.63,455.86,Single-ply,SBD,M,
Boys,74.84,3,Jamison Starrett,Crandall,74.21,136.08,83.91,163.29,383.29,Single-ply,SBD,M,
Boys,82.1,1,Cayden Goodall,Crandall,76.11,188.24,124.74,235.87,548.85,Single-ply,SBD,M,
Boys,82.1,2,Jordan Faz,Eustace,81.78,172.37,108.86,167.83,449.06,Single-ply,SBD,M,
Boys,82.1,3,Josh Onourah,Crandall,77.29,158.76,102.06,172.37,433.18,Single-ply,SBD,M,
Boys,82.1,4,Vitus Hansen,Eustace,80.78,111.13,83.91,120.2,315.25,Single-ply,SBD,M,
Boys,89.81,1,Reggie Williams,Crandall,89.63,249.48,149.69,240.4,639.57,Single-ply,SBD,M,
Boys,89.81,2,Austin Shackleford,Crandall,87.04,183.7,124.74,192.78,501.22,Single-ply,SBD,M,
Boys,99.79,1,Damon Dunbar,Terrell,97.2,204.12,92.99,206.38,503.49,Single-ply,SBD,M,
Boys,99.79,2,Cody Phillips,Terrell,99.11,179.17,99.79,213.19,492.15,Single-ply,SBD,M,
Boys,99.79,3,Jai Turner,Crandall,90.13,179.17,111.13,183.7,474,Single-ply,SBD,M,
Boys,99.79,4,Gabe Rudman,Eustace,92.99,170.1,111.13,183.7,464.93,Single-ply,SBD,M,
Boys,99.79,5,Jared Guajardo,Terrell,91.49,188.24,102.06,158.76,449.06,Single-ply,SBD,M,
Boys,109.77,1,Cade Bleakney,Crandall,100.43,229.06,154.22,215.46,598.74,Single-ply,SBD,M,
Boys,109.77,2,Braylon Vick,Terrell,100.24,195.04,113.4,170.1,478.54,Single-ply,SBD,M,
Boys,109.77,3,Hearsey McGrady,Terrell,104.69,188.24,108.86,176.9,474,Single-ply,SBD,M,
Boys,109.77,4,Dean Henderson,Terrell,103.46,165.56,92.99,199.58,458.13,Single-ply,SBD,M,
Boys,109.77,5,Tommy McLaughlin,Crandall,106.91,181.44,108.86,165.56,455.86,Single-ply,SBD,M,
Boys,124.74,1,Tytus Daugherty,Crandall,112.31,210.92,124.74,210.92,546.58,Single-ply,SBD,M,
Boys,124.74,2,Cole Carpentar,Eustace,122.92,124.74,83.91,142.88,351.53,Single-ply,SBD,M,
Boys,139.71,1,David French,Eustace,126.28,249.48,147.42,249.48,646.37,Single-ply,SBD,M,
Boys,139.71,2,Ryan Faulk,Crandall,126.37,199.58,127.01,185.97,512.56,Single-ply,SBD,M,
Boys,139.71,3,Kylon Holmes,Terrell,130.36,165.56,142.88,204.12,512.56,Single-ply,SBD,M,
Boys,139.71,4,Anthony Wynne,Terrell,124.87,174.63,102.06,183.7,460.4,Single-ply,SBD,M,
Boys,139.71,5,Hunter Lane,Eustace,132.9,158.76,81.65,147.42,387.82,Single-ply,SBD,M,
Boys,139.71+,1,Isais Vasquez,Crandall,151.5,219.99,115.67,215.46,551.11,Single-ply,SBD,M,
