Place,Name,Sex,Age,Country,Equipment,Division,BodyweightKg,WeightClassKg,Squat1Kg,Squat2Kg,Squat3Kg,Best3SquatKg,Bench1Kg,Bench2Kg,Bench3Kg,Best3BenchKg,Deadlift1Kg,Deadlift2Kg,Deadlift3Kg,Best3DeadliftKg,TotalKg,Event,BirthDate
1,Eliza Gerlach,F,23,Poland,Wraps,Juniors 20-23,51.5,52,130,-140,-150,130,82.5,85,-87.5,85,-150,150,160,160,375,SBD,
2,Magdalena Frącek,F,22,Poland,Wraps,Juniors 20-23,50.8,52,125,130,-140,130,60,-62.5,-62.5,60,130,140,-145,140,330,SBD,
3,Wiktoria Karwel,F,20,Poland,Wraps,Juniors 20-23,50.7,52,90,-100,-100,90,35,37.5,40,40,110,120,-125,120,250,SBD,
1,Kasandra Patelczyk,F,21,Poland,Wraps,Juniors 20-23,58.1,60,145,155,160,160,70,72.5,-77.5,72.5,150,160,170,170,402.5,SBD,
2,Dagmara Rybak,F,23,Poland,Wraps,Juniors 20-23,59.2,60,112.5,-117.5,120,120,52.5,57.5,-60,57.5,115,120,-127.5,120,297.5,SBD,
3,Marcelina Gorlicka,F,21,Poland,Wraps,Juniors 20-23,58.9,60,95,-102.5,-102.5,95,37.5,42.5,-45,42.5,120,127.5,-130,127.5,265,SBD,
4,Elzbieta Szachniewicz,F,21,Poland,Wraps,Juniors 20-23,57.3,60,90,95,-100,95,55,-60,60,60,100,107.5,-115,107.5,262.5,SBD,
DQ,Aleksandra Szymczykowska,F,23,Poland,Wraps,Juniors 20-23,59.3,60,-155,155,165,165,105,107.5,110,110,-175,-175,-175,,,SBD,
1,Daria Zielińska,F,20,Poland,Wraps,Juniors 20-23,65.8,67.5,147.5,155,160,160,72.5,77.5,80,80,-170,172.5,177.5,177.5,417.5,SBD,
2,Wiktoria Grzywa,F,,,Wraps,Juniors 20-23,67.1,67.5,155,162.5,-167.5,162.5,70,75,77.5,77.5,160,170,-175,170,410,SBD,
3,Katarzyna Gierlicka,F,20,Poland,Wraps,Juniors 20-23,66.5,67.5,152.5,160,-167.5,160,-60,62.5,-65,62.5,160,165,-167.5,165,387.5,SBD,
1,Hanna Hapel,F,21,Poland,Wraps,Juniors 20-23,68.7,75,130,140,150,150,65,-70,70,70,-140,145,-150,145,365,SBD,
1,Janina Łyczko-Schmidt,F,40,Poland,Wraps,Masters 40-49,71.4,75,140,155,-165,155,80,-87.5,87.5,87.5,160,-175,-175,160,402.5,SBD,
1,Malgorzata Bartkowiak,F,43,Poland,Wraps,Masters 40-49,88.3,90,-130,130,-150,130,60,-65,67.5,67.5,140,150,157.5,157.5,355,SBD,
1,Malgorzata Staniszewska,F,32,Poland,Wraps,Open,54.2,56,110,115,-120,115,55,-60,-60,55,137.5,145,-150,145,315,SBD,
1,Anna Przybysz,F,33,Poland,Wraps,Open,59.5,60,115,125,130,130,57.5,60,-62.5,60,125,135,137.5,137.5,327.5,SBD,
2,Natalia Sobczak,F,25,Poland,Wraps,Open,59.8,60,-115,115,-120,115,65,67.5,-70,67.5,135,-142.5,-147.5,135,317.5,SBD,
1,Dominika Sanowska,F,25,Poland,Wraps,Open,61.9,67.5,-125,125,135,135,67.5,70,-75,70,140,-147.5,-152.5,140,345,SBD,
1,Małgorzata Kruza,F,39,Poland,Wraps,Open,70.5,75,-180,180,-190,180,95,100,-102.5,100,160,170,180,180,460,SBD,
2,Urszula Walukiewicz,F,32,Poland,Wraps,Open,74.6,75,192.5,202.5,-210,202.5,80,82.5,87.5,87.5,145,152.5,-162.5,152.5,442.5,SBD,
3,Marta Dąbrowska,F,,Poland,Wraps,Open,72.2,75,157.5,165,-170,165,85,-90,90,90,167.5,-175,-180,167.5,422.5,SBD,
4,Janina Łyczko-Schmidt,F,40,Poland,Wraps,Open,71.4,75,140,155,-165,155,80,-87.5,87.5,87.5,160,-175,-175,160,402.5,SBD,
5,Julia Baranowska,F,26,Poland,Wraps,Open,72.7,75,-150,-150,150,150,65,-67.5,-67.5,65,150,160,-170,160,375,SBD,
6,Oliwia Lasak,F,24,Poland,Wraps,Open,74.6,75,102.5,110,-115,110,65,-67.5,67.5,67.5,130,137.5,145,145,322.5,SBD,
1,Magda Koza,F,27,Poland,Wraps,Open,77.2,82.5,-160,165,-175,165,87.5,-92.5,,87.5,180,-192.5,195,195,447.5,SBD,
2,Magdalena Maciejczak,F,23,Poland,Wraps,Open,78.2,82.5,185,-190,190,190,77.5,-82.5,-82.5,77.5,145,152.5,-160,152.5,420,SBD,
3,Anna Patrzek,F,34,Poland,Wraps,Open,82.3,82.5,165,-170,-170,165,-85,87.5,90,90,135,,,135,390,SBD,
1,Zofia Magielska,F,14,Poland,Wraps,Teen 13-15,59.2,60,75,80,-85,80,50,55,-57.5,55,90,-95,95,95,230,SBD,
1,Alicja Rojek,F,16,Poland,Wraps,Teen 16-17,58.8,60,100,105,-107.5,105,-52.5,52.5,57.5,57.5,135,142.5,-150,142.5,305,SBD,
1,Eszter Szotak,F,17,Hungary,Wraps,Teen 16-17,68.3,75,90,-105,107.5,107.5,40,-45,47.5,47.5,95,107.5,110,110,265,SBD,
1,Jagoda Cichowicz,F,19,Poland,Wraps,Teen 18-19,54.9,56,127.5,132.5,140,140,47.5,-52.5,52.5,52.5,105,-115,115,115,307.5,SBD,
1,Karolina Białek,F,19,Poland,Wraps,Teen 18-19,59.5,60,-125,125,132.5,132.5,52.5,57.5,-60,57.5,110,-117.5,120,120,310,SBD,
1,Kinga Łątkowska,F,18,Poland,Wraps,Teen 18-19,72.6,75,107.5,117.5,125,125,52.5,57.5,62.5,62.5,140,152.5,-160,152.5,340,SBD,
1,Krystyna Abramczyk Puzio,F,56,Poland,Wraps,Masters 50-59,104.6,90+,135,-145,155,155,,,,,,,,,155,S,
1,Krystyna Abramczyk Puzio,F,56,Poland,Raw,Masters 50-59,104.6,90+,,,,,65,72.5,-77.5,72.5,,,,,72.5,B,
1,Brigitte Maczka,F,60,Germany,Raw,Masters 60-69,72.8,75,,,,,35,40,41,41,,,,,41,B,
1,Brigitte Maczka,F,60,Germany,Raw,MPF,72.8,75,,,,,35,40,41,41,,,,,41,B,
1,Anna Kubaszewska,F,27,Poland,Raw,Open,55.4,56,,,,,-70,70,75,75,,,,,75,B,
1,Ewelina Kozlowska,F,31,Poland,Raw,Open,60,60,,,,,60,-65,-65,60,,,,,60,B,
1,Joanna Kosik,F,39,Poland,Raw,Open,62.9,67.5,,,,,105,110,112.5,112.5,,,,,112.5,B,
2,Andrea Benešová,F,29,Czechia,Raw,Open,65.2,67.5,,,,,85,90,95,95,,,,,95,B,
1,Lucie Habart,F,30,Germany,Raw,Open,74,75,,,,,-45,45,-60,45,,,,,45,B,
1,Małgorzata Malikowska-Pikula,F,36,Poland,Raw,Open,81.5,82.5,,,,,155,160,162.5,162.5,,,,,162.5,B,
1,Sabine Allner,F,37,Germany,Raw,Open,120.4,90+,,,,,140,147.5,-152.5,147.5,,,,,147.5,B,
DQ,Daria Suchodolska,F,19,Poland,Raw,Open,90.5,90+,,,,,-95,-95,-95,,,,,,,B,
1,Emilia Kedzia,F,19,Poland,Raw,Teen 18-19,47.4,48,,,,,57.5,60,-62.5,60,,,,,60,B,
1,Brigitte Maczka,F,60,Germany,Multi-ply,Masters 60-69,72.8,75,,,,,41,,,41,,,,,41,B,
1,Brigitte Maczka,F,60,Germany,Multi-ply,MPF,72.8,75,,,,,41,,,41,,,,,41,B,
1,Kamila Nyderek,F,18,Poland,Unlimited,Open,65.8,67.5,,,,,65,72.5,-75,72.5,,,,,72.5,B,
1,Anita Rygał,F,31,Poland,Unlimited,Open,72.4,75,,,,,140,150,-175,150,,,,,150,B,
1,Sabine Allner,F,37,Germany,Unlimited,Open,120.4,90+,,,,,-170,170,177.5,177.5,,,,,177.5,B,
1,Magdalena Szpila,F,20,Poland,Raw,Juniors 20-23,50.6,52,,,,,,,,,120,130,132.5,132.5,132.5,D,
2,Martyna Dubij,F,22,Poland,Raw,Juniors 20-23,51,52,,,,,,,,,95,-100,-100,95,95,D,
1,Magdalena Bielska,F,20,Poland,Raw,Juniors 20-23,53.6,56,,,,,,,,,107.5,115,-120,115,115,D,
1,Karolina Pączkowska,F,20,Poland,Raw,Juniors 20-23,58.7,60,,,,,,,,,125,132.5,137.5,137.5,137.5,D,
2,Karolina Dubij,F,20,Poland,Raw,Juniors 20-23,58.7,60,,,,,,,,,80,90,100,100,100,D,
1,Sabina Oleksy,F,40,Poland,Raw,Masters 40-49,78.3,82.5,,,,,,,,,125,-140,-140,125,125,D,
1,Krystyna Abramczyk Puzio,F,56,Poland,Raw,Masters 50-59,104.6,90+,,,,,,,,,145,155,165,165,165,D,
1,Brigitte Maczka,F,60,Germany,Raw,Masters 60-69,72.8,75,,,,,,,,,95,102.5,,102.5,102.5,D,
1,Brigitte Maczka,F,60,Germany,Raw,MPF,72.8,75,,,,,,,,,95,102.5,,102.5,102.5,D,
1,Sabina Oleksy,F,40,Poland,Raw,MPF,78.3,82.5,,,,,,,,,125,-140,-140,125,125,D,
1,Magdalena Szpila,F,20,Poland,Raw,Open,50.6,52,,,,,,,,,120,130,132.5,132.5,132.5,D,
2,Dominika Dziura,F,31,Poland,Raw,Open,50,52,,,,,,,,,115,122.5,-132.5,122.5,122.5,D,
1,Paulina Pracownik,F,31,Poland,Raw,Open,60.3,67.5,,,,,,,,,102.5,115,-122.5,115,115,D,
2,Karolina Maskova,F,26,Czechia,Raw,Open,65.5,67.5,,,,,,,,,100,115,-122.5,115,115,D,
1,Kristýna Tomšovicová,F,24,Czechia,Raw,Open,98.3,90+,,,,,,,,,70,90,,90,90,D,
1,Natalia Szpila,F,16,Poland,Raw,Teen 16-17,51.7,52,,,,,,,,,90,100,-105,100,100,D,
1,Adrian Jendrzejczak,M,23,Poland,Wraps,Juniors 20-23,59.7,60,-90,90,-107.5,90,80,-90,-90,80,-120,120,130,130,300,SBD,
1,Lukasz Jablonski,M,22,Poland,Wraps,Juniors 20-23,66.4,67.5,-205,205,-210,205,112.5,117.5,120,120,227.5,-232.5,-232.5,227.5,552.5,SBD,
1,Filip Stelmach,M,21,Poland,Wraps,Juniors 20-23,74.9,75,-220,-230,230,230,117.5,122.5,-127.5,122.5,220,227.5,-235,227.5,580,SBD,
2,Maksymilian Lehman,M,20,Poland,Wraps,Juniors 20-23,74.2,75,170,180,-190,180,105,112.5,115,115,200,220,-230,220,515,SBD,
3,Karol Kikosicki,M,20,Poland,Wraps,Juniors 20-23,70.6,75,145,147.5,-155,147.5,120,125,130,130,-165,165,175,175,452.5,SBD,
1,Szymon Mazurek,M,23,Poland,Wraps,Juniors 20-23,82.5,82.5,260,-272.5,-272.5,260,140,150,-160,150,245,255,-262.5,255,665,SBD,
2,Slawomir Wyskiel,M,23,Poland,Wraps,Juniors 20-23,80.9,82.5,200,-205,205,205,120,-127.5,-127.5,120,200,210,-220,210,535,SBD,
3,Jakub Domagała,M,23,Poland,Wraps,Juniors 20-23,80.3,82.5,167.5,177.5,-185,177.5,95,102.5,-107.5,102.5,190,205,215,215,495,SBD,
1,Michał Łopata,M,23,Poland,Wraps,Juniors 20-23,88.9,90,225,240,-250,240,135,145,147.5,147.5,272.5,282.5,-292.5,282.5,670,SBD,
2,Damian Doliwka,M,23,Poland,Wraps,Juniors 20-23,87.2,90,230,-250,250,250,140,145,,145,240,255,257.5,257.5,652.5,SBD,
3,Bartłomiej Kowalczyk,M,23,Poland,Wraps,Juniors 20-23,89.2,90,-245,252.5,-260.5,252.5,-145,145,-150,145,230,245,255,255,652.5,SBD,
4,Jakub Czech,M,22,Poland,Wraps,Juniors 20-23,88,90,215,230,240,240,125,132.5,-140,132.5,235,250,-260,250,622.5,SBD,
5,Kacper Pietraś,M,21,Poland,Wraps,Juniors 20-23,89.3,90,-210,210,225,225,120,125,-127.5,125,180,-185,,180,530,SBD,
1,Kajetan Nakonieczny,M,21,Poland,Wraps,Juniors 20-23,99.6,100,290,-305,-305,290,177.5,187.5,-195,187.5,290,-305,,290,767.5,SBD,
2,Bartosz Szczepankiewicz,M,22,Poland,Wraps,Juniors 20-23,98.8,100,-230,230,,230,175,,,175,-275,275,-300,275,680,SBD,
3,Damian Szal,M,23,Poland,Wraps,Juniors 20-23,92.9,100,240,252.5,265,265,140,150,157.5,157.5,240,250,-255,250,672.5,SBD,
4,Mateusz Sikora,M,20,Poland,Wraps,Juniors 20-23,97.6,100,190,205,215,215,130,-140,-140,130,250,260,270,270,615,SBD,
5,Krystian Kwiatkowski,M,20,Poland,Wraps,Juniors 20-23,91.3,100,215,230,-240,230,115,-127.5,132.5,132.5,190,210,230,230,592.5,SBD,
6,Bartosz Firyn,M,20,Poland,Wraps,Juniors 20-23,93.7,100,180,190,200,200,117.5,-120,-125,117.5,220,-230,-230,220,537.5,SBD,
1,Adrian Sitarski,M,23,Poland,Wraps,Juniors 20-23,104.7,110,252.5,260,-265,260,142.5,147.5,-152.5,147.5,285,292.5,-300,292.5,700,SBD,
2,Kamil Grabka,M,22,Poland,Wraps,Juniors 20-23,107.4,110,240,260,270,270,140,150,152.5,152.5,250,-260,260,260,682.5,SBD,
3,Grzegorz Bala,M,22,Poland,Wraps,Juniors 20-23,107.6,110,245,255,-260,255,152.5,157.5,-162.5,157.5,240,250,-265,250,662.5,SBD,
4,Kacper Chochol,M,20,Poland,Wraps,Juniors 20-23,107,110,230,-245,250,250,125,132.5,-137.5,132.5,200,220,230,230,612.5,SBD,
5,Piotr Bilski,M,21,Poland,Wraps,Juniors 20-23,109.1,110,200,215,-225,215,122.5,130,-140,130,230,245,-255,245,590,SBD,
1,Wiktor Michalski,M,21,Poland,Wraps,Juniors 20-23,119.2,125,280,-300,300,300,140,150,155,155,250,265,275,275,730,SBD,
2,Stanisław Biernat,M,20,Poland,Wraps,Juniors 20-23,114.3,125,260,272.5,-282.5,272.5,-150,150,157.5,157.5,220,230,-237.5,230,660,SBD,
3,Jakub Bogucki,M,21,Poland,Wraps,Juniors 20-23,117.9,125,210,-225,225,225,150,-157.5,157.5,157.5,210,-215,,210,592.5,SBD,
4,Kamil Muller,M,22,Poland,Wraps,Juniors 20-23,111.4,125,-170,170,-190,170,100,-105,-105,100,200,205,,205,475,SBD,
1,Marcin Gierczak,M,23,Poland,Wraps,Juniors 20-23,131.1,140,325,340,-350,340,190,200,205.5,205.5,345,-365.5,-365.5,345,890.5,SBD,
2,Jakub Dzik,M,22,Poland,Wraps,Juniors 20-23,134.1,140,-280,280,-300,280,155,-160,-160,155,255,265,275,275,710,SBD,
1,Makar Tamrazyan,M,41,Armenia,Wraps,Masters 40-49,67.5,67.5,150,160,,160,-95,95,107.5,107.5,200,-220,-232.5,200,467.5,SBD,
1,Arkadiusz Tatarczak,M,46,Poland,Wraps,Masters 40-49,74,75,-165,165,-200.5,165,80,95,-102.5,95,160,180,190,190,450,SBD,
DQ,Artyom Mkrtchyan,M,40,Armenia,Wraps,Masters 40-49,74,75,-170,,,,,,,,,,,,,SBD,
1,Anton Frič,M,49,Slovakia,Wraps,Masters 40-49,81.5,82.5,210,230,240,240,145,155,-162.5,155,220,240,255,255,650,SBD,
2,Daniel Cieplak,M,48,Poland,Wraps,Masters 40-49,82.5,82.5,210,230,-235,230,147.5,-155,,147.5,220,-230,-230,220,597.5,SBD,
3,Robert Kucza,M,44,Poland,Wraps,Masters 40-49,81.3,82.5,100,110,125,125,100,110,112.5,112.5,140,150,160,160,397.5,SBD,
1,Mariusz Gładysz,M,40,Poland,Wraps,Masters 40-49,83.8,90,200,210,-220,210,150,-160,160,160,240,-250,,240,610,SBD,
2,Arkadiusz Kalinowski,M,45,Poland,Wraps,Masters 40-49,85.8,90,-165,175,190,190,102.5,110,115,115,225,237.5,250,250,555,SBD,
3,Kamil Lindecki,M,40,Poland,Wraps,Masters 40-49,87.5,90,170,190,210,210,110,115,120,120,170,180,-190,180,510,SBD,
1,Daniel Górski,M,43,Poland,Wraps,Masters 40-49,99.1,100,210,220,,220,165,175,-180,175,230,-250,,230,625,SBD,
1,Grzegorz Drewniany,M,45,Poland,Wraps,Masters 40-49,102.7,110,230,245,-257.5,245,160,-165,,160,240,255,265,265,670,SBD,
2,Gevorg Aleksanyan,M,40,Armenia,Wraps,Masters 40-49,101.6,110,230,246,,246,-125,127.5,137.5,137.5,230,246,-247.5,246,629.5,SBD,
1,Kuba Koryzna,M,45,Poland,Wraps,Masters 40-49,111.8,125,180,-195,195,195,185,195,-200.5,195,220,240,250,250,640,SBD,
1,Michael Schmidt,M,52,Germany,Wraps,Masters 50-59,74.6,75,200,-210,210,210,125,130,135,135,200,210,225,225,570,SBD,
1,Jan Augustat,M,52,Germany,Wraps,Masters 50-59,81.6,82.5,170,190,205,205,115,120,-125,120,200,215,220,220,545,SBD,
1,Mike Künzling,M,57,Germany,Wraps,Masters 50-59,85.6,90,200,-210,,200,122.5,130,135,135,200,220,,220,555,SBD,
1,Krzysztof Tur,M,54,Poland,Wraps,Masters 50-59,95.2,100,205,220,227.5,227.5,105,115,117.5,117.5,225,-235,-235,225,570,SBD,
1,Adam Urbański,M,59,Poland,Wraps,Masters 50-59,104.8,110,170,180,-190,180,140,-145,,140,180,190,-200,190,510,SBD,
1,Mieczysłąw Maczka,M,67,Germany,Wraps,Masters 60-69,75,75,110,127.5,-137.5,127.5,87.5,95,100,100,125,142.5,152.5,152.5,380,SBD,
1,Józef Sokołowski,M,66,Poland,Wraps,Masters 60-69,105.7,110,250,270,280,280,100,110,115,115,280,-290,290,290,685,SBD,
1,Mieczysłąw Maczka,M,67,Germany,Wraps,MPF,75,75,110,127.5,-137.5,127.5,87.5,95,100,100,125,142.5,152.5,152.5,380,SBD,
1,Wiktor Ciachera,M,25,Poland,Wraps,MPF,80.6,82.5,205,217.5,222.5,222.5,117.5,125,-127.5,125,225,235,-240,235,582.5,SBD,
1,Patryk Kunwalt,M,26,Poland,Wraps,MPF,97.5,100,240,255,-265,255,150,160,-162.5,160,-240,250,260,260,675,SBD,
1,Cezary Urbaniak,M,39,Poland,Wraps,MPF,108.5,110,260,-270,270,270,180,-190,,180,-260,260,,260,710,SBD,
2,Dariusz Korniak,M,30,Poland,Wraps,MPF,108.8,110,250,-265,-270,250,150,160,165,165,270,280,290,290,705,SBD,
3,Milosz Krzyzewski,M,24,Poland,Wraps,MPF,108.3,110,245,-250,250,250,160,167.5,172.5,172.5,250,257.5,270,270,692.5,SBD,
1,Karol Prawdzik,M,29,Poland,Wraps,MPF,124.1,125,220,-240,-240,220,180,190,200,200,250,260,270,270,690,SBD,
1,Anton Meha,M,30,Ukraine,Wraps,Open,59.5,60,-80,-100,100,100,70,75,-80,75,145,160,-165,160,335,SBD,
1,Marcin Boruchowski,M,25,Poland,Wraps,Open,73.7,75,240,250,-255,250,135,140,-145,140,235,245,252.5,252.5,642.5,SBD,
1,Piotr Kowalczyk,M,25,Poland,Wraps,Open,81.9,82.5,245,257.5,270.5,270.5,157.5,162.5,-167.5,162.5,240,252.5,255,255,688,SBD,
2,Tomasz Borowczyk,M,36,Poland,Wraps,Open,82.5,82.5,-250,250,-270,250,145,152.5,157.5,157.5,260,275,-282.5,275,682.5,SBD,
3,Szymon Mazurek,M,23,Poland,Wraps,Open,82.5,82.5,260,-272.5,-272.5,260,140,150,-160,150,245,255,-262.5,255,665,SBD,
4,Wiktor Ciachera,M,25,Poland,Wraps,Open,80.6,82.5,205,217.5,222.5,222.5,117.5,125,-127.5,125,225,235,-240,235,582.5,SBD,
5,Tomasz Szymanski,M,38,Poland,Wraps,Open,81.7,82.5,-140,145,160,160,80,90,-100,90,175,190,195,195,445,SBD,
6,Adrian Baranowski,M,29,Poland,Wraps,Open,82,82.5,120,130,-140,130,70,-75,-75,70,-160,160,-175,160,360,SBD,
1,Tomasz Moniak,M,27,Poland,Wraps,Open,89,90,285,300,-307.5,300,150,157.5,-162.5,157.5,290,-305.5,310,310,767.5,SBD,
2,Marcin Kosut,M,32,Poland,Wraps,Open,89.2,90,260,270,280,280,160,170,175,175,260,270,280,280,735,SBD,
3,Marcus Rosmalm,M,30,Sweden,Wraps,Open,88.9,90,240,255,265,265,185,190,195,195,250,265,-287.5,265,725,SBD,
4,Mariusz Marszalik,M,26,Poland,Wraps,Open,88.1,90,280,295,-305,295,155,162.5,167.5,167.5,250,-260,-260,250,712.5,SBD,
5,Mateusz Morawiec,M,36,Poland,Wraps,Open,89.7,90,250,260,,260,150,157.5,162.5,162.5,280,-300,-300,280,702.5,SBD,
6,Dawid Raczek,M,20,Poland,Wraps,Open,87.8,90,205,215,225,225,130,137.5,-142.5,137.5,255,270,-280,270,632.5,SBD,
7,Adam Malarski,M,25,Poland,Wraps,Open,89.6,90,230,-240,240,240,130,137.5,-142.5,137.5,240,255,-270,255,632.5,SBD,
8,Piotr Zawisza,M,24,Poland,Wraps,Open,89,90,225,232.5,-240,232.5,-125,130,-132.5,130,220,230,-240,230,592.5,SBD,
9,Adam Chaberko,M,33,Poland,Wraps,Open,89.4,90,200,210,-230,210,110,120,-130,120,200,215,230,230,560,SBD,
10,Łukasz Dobrowolski,M,38,Poland,Wraps,Open,89.6,90,180,190,-202.5,190,130,137.5,142.5,142.5,200,212.5,,212.5,545,SBD,
DQ,Adrian Rudniew,M,26,Poland,Wraps,Open,88.5,90,-190,-190,-190,,110,-115,117.5,117.5,200,-210,-210,200,,SBD,
1,Marcel Rothauszky,M,26,Germany,Wraps,Open,99.9,100,330,-340,,330,-190,200,-205,200,300,-320,-320,300,830,SBD,
2,Bartosz Zaik,M,36,Poland,Wraps,Open,99.5,100,260,280,295,295,140,150,155,155,310,320.5,325,325,775,SBD,
3,Kajetan Nakonieczny,M,21,Poland,Wraps,Open,99.6,100,290,-305,-305,290,177.5,187.5,-195,187.5,290,-305,,290,767.5,SBD,
4,Daniel Wawrzyniak,M,38,Poland,Wraps,Open,98.1,100,250,260,270,270,190,200,-205,200,250,270,290,290,760,SBD,
5,Bartosz Wulbach,M,29,Poland,Wraps,Open,99.3,100,250,260,270,270,150,155,160,160,260,270,280,280,710,SBD,
6,Patryk Kunwalt,M,26,Poland,Wraps,Open,97.5,100,240,255,-265,255,150,160,-162.5,160,-240,250,260,260,675,SBD,
7,Piotr Jastrzębski,M,25,Poland,Wraps,Open,98.5,100,230,245,-260,245,142.5,150,155,155,225,237.5,242.5,242.5,642.5,SBD,
8,Daniel Górski,M,43,Poland,Wraps,Open,99.1,100,210,220,,220,165,175,-180,175,230,-250,,230,625,SBD,
9,Marek Wawszczyk,M,30,Poland,Wraps,Open,96.4,100,260,-270,-270,260,130,-137.5,-137.5,130,220,230,-240,230,620,SBD,
10,Dawid Drężek,M,25,Poland,Wraps,Open,98,100,235,-255,-255,235,130,140,-145,140,-215,225,237.5,237.5,612.5,SBD,
11,Adrian Pańczyk,M,25,Poland,Wraps,Open,99.4,100,230,250,-260,250,120,127.5,132.5,132.5,225,-235,-235,225,607.5,SBD,
12,Olaf Susicki,M,24,Poland,Wraps,Open,95.8,100,240,255,-265,255,120,127.5,135,135,190,205,-215,205,595,SBD,
13,Adrian Soltysik,M,28,Poland,Wraps,Open,98.1,100,215,-225,-225,215,140,145,150,150,-220,-230,230,230,595,SBD,
14,Damian Matuszczak,M,31,Poland,Wraps,Open,97.8,100,180,190,200,200,125,130,-132.5,130,200,210,220,220,550,SBD,
1,Oskar Bar,M,27,Poland,Wraps,Open,107.3,110,335,350,360,360,190,-200,,190,285,300,307.5,307.5,857.5,SBD,
2,Damian Głuchowski,M,28,Poland,Wraps,Open,108.6,110,295,305,-315,305,195,202.5,207.5,207.5,250,275,-287.5,275,787.5,SBD,
3,Marcin Mrozek,M,30,Poland,Wraps,Open,101.1,110,285,-292.5,-292.5,285,190,-195,195,195,280,290,-295,290,770,SBD,
4,Przemysław Brodala,M,33,Poland,Wraps,Open,108.8,110,290,-300,-300,290,170,-185,185,185,280,295,-300,295,770,SBD,
5,Szymon Obrochta,M,30,Poland,Wraps,Open,108.3,110,270,-285,-290,270,180,190,-197.5,190,290,300,-305,300,760,SBD,
6,Ilia Tabachnyi,M,29,Ukraine,Wraps,Open,105.9,110,285,300,310,310,132.5,-140,145,145,235,250,265,265,720,SBD,
7,Cezary Urbaniak,M,39,Poland,Wraps,Open,108.5,110,260,-270,270,270,180,-190,,180,-260,260,,260,710,SBD,
8,Leon Pavlovic,M,29,Norway,Wraps,Open,105.6,110,-265,265,-290,265,150,160,165,165,275,-285,,275,705,SBD,
9,Dariusz Korniak,M,30,Poland,Wraps,Open,108.8,110,250,-265,-270,250,150,160,165,165,270,280,290,290,705,SBD,
10,Marcin Kuczkowski,M,26,Poland,Wraps,Open,107.7,110,260,275,290,290,145,155,160,160,230,240,250,250,700,SBD,
11,Milosz Krzyzewski,M,24,Poland,Wraps,Open,108.3,110,245,-250,250,250,160,167.5,172.5,172.5,250,257.5,270,270,692.5,SBD,
12,Mariusz Krzeminski,M,38,Poland,Wraps,Open,109.4,110,230,240,-245,240,150,155,-160,155,260,280,290,290,685,SBD,
13,Dawid Górzyński,M,36,Poland,Wraps,Open,106.4,110,220,230,-240,230,180,185,-192.5,185,240,250,260,260,675,SBD,
14,Jakub Walczak,M,34,Poland,Wraps,Open,103.5,110,240,260,-275,260,155,165,-172.5,165,230,245,-255,245,670,SBD,
15,Maciej Fień,M,28,Poland,Wraps,Open,107.8,110,250,260,-265,260,120,125,-127.5,125,240,250,-260,250,635,SBD,
16,Jakub Palenik,M,37,Poland,Wraps,Open,106.4,110,-215,215,230,230,140,150,-155,150,210,230,-240,230,610,SBD,
17,Felix Sundin,M,26,Sweden,Wraps,Open,109.1,110,195,210,-225,210,120,130,135,135,220,235,240,240,585,SBD,
1,Michał Pawłowski,M,24,Poland,Wraps,Open,118.2,125,300,320,340,340,200,207.5,,207.5,305,320,327.5,327.5,875,SBD,
2,Sławomir Grzona,M,34,Poland,Wraps,Open,122.9,125,320,335,340,340,170,182.5,190,190,320,330,340,340,870,SBD,
3,Adam Woźny,M,20,Poland,Wraps,Open,119.3,125,330,345,-355,345,195,202.5,-205,202.5,275,290,295,295,842.5,SBD,
4,Maciej Młynarczyk,M,31,Poland,Wraps,Open,119.3,125,300,310,-320,310,205,212.5,,212.5,300,-310,,300,822.5,SBD,
5,Paweł Łukomski,M,29,Poland,Wraps,Open,120.3,125,335,350,,350,155,-165,-165,155,315,-330,-340,315,820,SBD,
6,Karol Prawdzik,M,29,Poland,Wraps,Open,124.1,125,220,-240,-240,220,180,190,200,200,250,260,270,270,690,SBD,
7,Theo Sundin,M,28,Sweden,Wraps,Open,123.7,125,230,-250,-250,230,135,145,155,155,245,260,275,275,660,SBD,
8,Sebastian Mitoraj,M,25,Poland,Wraps,Open,118.1,125,210,230,-250,230,137.5,145,-150,145,220,240,250,250,625,SBD,
9,Krystian Tatara,M,30,Poland,Wraps,Open,115.8,125,205,-217.5,-217.5,205,145,150,-160,150,240,255,-265,255,610,SBD,
10,Grzegorz Reka,M,37,Poland,Wraps,Open,120.2,125,190,195,200,200,125,130,135,135,190,200,-215,200,535,SBD,
1,Jakub Dylewski,M,25,Poland,Wraps,Open,137.5,140,340,-355,-355,340,190,197.5,200,200,285,300,-310,300,840,SBD,
2,Marek Gortad,M,26,Poland,Wraps,Open,131.7,140,325,-345,-345,325,200,-205,,200,300,-310,,300,825,SBD,
1,Konrad Blewązka,M,24,Poland,Raw,Open,141.7,140+,400,410,,410,210,217.5,-220,217.5,355,372.5,,372.5,1000,SBD,
2,Szymon Wójtowicz,M,27,Poland,Raw,Open,140.1,140+,290,310,325,325,235,250,-257.5,250,335,350,-370,350,925,SBD,
1,Tomasz Arczewski,M,32,Poland,Wraps,Open,155,140+,280,300,320,320,190,200,205,205,-280,280,-290,280,805,SBD,
2,Roland Hegedüs,M,35,Slovakia,Wraps,Open,142.6,140+,300,-340,-345,300,160,180,-190,180,275,305,-315,305,785,SBD,
3,Mateusz Trepiak,M,31,Poland,Wraps,Open,166.7,140+,240,250,-260,250,145,155,-162.5,155,-240,240,-252.5,240,645,SBD,
1,Piotr Stefaniuk,M,31,Poland,Wraps,Paralympic,65.6,67.5,160,-170,-170,160,115,120,122.5,122.5,-210,-220,220,220,502.5,SBD,
1,Charlie Rosmalm,M,14,Sweden,Wraps,Teen 13-15,50.3,52,70,85,-97.5,85,45,55,-62.5,55,80,95,-102.5,95,235,SBD,
1,Robert Milaniak,M,15,Poland,Wraps,Teen 13-15,94.7,100,155,165,170,170,-85,-92.5,92.5,92.5,180,195,202.5,202.5,465,SBD,
1,Damian Michalewicz,M,17,Poland,Wraps,Teen 16-17,65.7,67.5,120,130,140,140,75,-82.5,-82.5,75,-150,150,160,160,375,SBD,
1,Jan Osipiak,M,17,Poland,Wraps,Teen 16-17,85.2,90,125,137.5,-145,137.5,-65,75,85,85,155,170,185,185,407.5,SBD,
1,Paweł Abramowicz,M,17,Poland,Wraps,Teen 16-17,96.6,100,155,-165,165,165,80,-85,-85,80,155,165,175,175,420,SBD,
1,Karol Dzugan,M,17,Poland,Wraps,Teen 16-17,122.9,125,215,225,235,235,145,155,-160,155,240,250,260,260,650,SBD,
1,Ignacy Banaszek,M,19,Poland,Wraps,Teen 18-19,79.6,82.5,200,215,-220,215,110,115,122.5,122.5,215,230,245,245,582.5,SBD,
2,Nikodem Hapka,M,18,Poland,Wraps,Teen 18-19,80,82.5,145,152.5,155,155,105,110,-112.5,110,200,-215,-215,200,465,SBD,
1,Wiktor Tatara,M,18,Poland,Wraps,Teen 18-19,84.2,90,-165,165,175,175,147.5,155,-157.5,155,205,215,-220,215,545,SBD,
2,Maciej Trzonkowski,M,18,Poland,Wraps,Teen 18-19,87.3,90,165,172.5,177.5,177.5,105,110,-112.5,110,227.5,240,-247.5,240,527.5,SBD,
1,Bartosz Pasecki,M,,Poland,Wraps,Teen 18-19,97.6,100,230,-240,-240,230,-122.5,127.5,132.5,132.5,190,200,207.5,207.5,570,SBD,
2,Patryk Kozlowski,M,19,Poland,Wraps,Teen 18-19,98.1,100,160,175,185,185,95,-102.5,102.5,102.5,180,-190,-190,180,467.5,SBD,
1,Mateusz Lazewski,M,18,Poland,Wraps,Teen 18-19,108.5,110,215,230,-240,230,-130,130,-135,130,210,230,-240,230,590,SBD,
2,Patryk Mróz,M,19,Poland,Wraps,Teen 18-19,102.5,110,-162.5,162.5,-172.5,162.5,95,-100,-100,95,185,202.5,-210,202.5,460,SBD,
1,Mikołaj Wilczyński,M,19,Poland,Wraps,Teen 18-19,112.2,125,-250,265,285,285,140,150,157.5,157.5,-260,280,300,300,742.5,SBD,
2,Kacper Inglot,M,19,Poland,Wraps,Teen 18-19,117,125,-180,185,-195,185,110,117.5,-120,117.5,185,197.5,205,205,507.5,SBD,
1,Szymon Tarwacki,M,19,Poland,Wraps,Teen 18-19,126.5,140,325,-345,-345,325,75,120,150,150,270,-290,-290,270,745,SBD,
1,David Kunzling,M,44,Germany,Wraps,Masters 40-49,88.9,90,160,-172.5,175,175,,,,,,,,,175,S,
1,Daniel Górski,M,43,Poland,Wraps,Masters 40-49,99.1,100,220,,,220,,,,,,,,,220,S,
2,Dariusz Zwoliński,M,,,Wraps,Masters 40-49,93.9,100,145,155,160,160,,,,,,,,,160,S,
1,Grzegorz Drewniany,M,45,Poland,Wraps,Masters 40-49,102.7,110,245,,,245,,,,,,,,,245,S,
1,Adam Urbański,M,59,Poland,Wraps,Masters 50-59,104.8,110,180,,,180,,,,,,,,,180,S,
1,Mieczysłąw Maczka,M,67,Germany,Wraps,Masters 60-69,75,75,127.5,,,127.5,,,,,,,,,127.5,S,
1,Mieczysłąw Maczka,M,67,Germany,Wraps,MPF,75,75,127.5,,,127.5,,,,,,,,,127.5,S,
1,Paweł Sztachelek,M,30,Poland,Wraps,MPF,119.4,125,-160,160,-180,160,,,,,,,,,160,S,
1,Mariusz Marszalik,M,26,Poland,Wraps,Open,88.1,90,295,,,295,,,,,,,,,295,S,
2,Dominik Kąkol,M,28,Poland,Wraps,Open,89.4,90,-230,230,-250,230,,,,,,,,,230,S,
1,Lukasz Drozdz,M,30,Poland,Wraps,Open,99,100,230,240,255,255,,,,,,,,,255,S,
2,Daniel Górski,M,43,Poland,Wraps,Open,99.1,100,220,,,220,,,,,,,,,220,S,
1,Leon Pavlovic,M,29,Norway,Wraps,Open,105.6,110,-270,270,-290,270,,,,,,,,,270,S,
1,Paweł Sztachelek,M,30,Poland,Wraps,Open,119.4,125,-160,160,-180,160,,,,,,,,,160,S,
1,Franciszek Jablonski,M,,,Wraps,Teen 13-15,65.8,67.5,-105,105,115,115,,,,,,,,,115,S,
1,Emil Golebiowski,M,17,Poland,Wraps,Teen 16-17,98.3,100,-180,-190,195,195,,,,,,,,,195,S,
1,Adrian Chełmecki,M,23,Poland,Raw,Juniors 20-23,61.4,67.5,,,,,115,120,-125,120,,,,,120,B,
1,Kacper Sus,M,23,Poland,Raw,Juniors 20-23,74.3,75,,,,,135,140,-150,140,,,,,140,B,
2,Maksymilian Lubosik,M,23,Poland,Raw,Juniors 20-23,72.8,75,,,,,130,-135,-135,130,,,,,130,B,
1,Hubert Raba,M,23,Poland,Raw,Juniors 20-23,78.7,82.5,,,,,155,162.5,167.5,167.5,,,,,167.5,B,
2,Michał Kowalski,M,20,Poland,Raw,Juniors 20-23,78.4,82.5,,,,,-150,155,162.5,162.5,,,,,162.5,B,
1,Kacper Klos,M,23,Poland,Raw,Juniors 20-23,102.9,110,,,,,190,200,-205,200,,,,,200,B,
2,Krzysztof Bajsarowicz,M,23,Poland,Raw,Juniors 20-23,107.6,110,,,,,165,175,185,185,,,,,185,B,
3,Adrian Kasprzycki,M,23,Poland,Raw,Juniors 20-23,108,110,,,,,175,182.5,185,185,,,,,185,B,
4,Kacper Bialek,M,22,Poland,Raw,Juniors 20-23,105.9,110,,,,,157.5,165,-170,165,,,,,165,B,
5,Dominik Figielski,M,20,Poland,Raw,Juniors 20-23,101.7,110,,,,,135,145,-150,145,,,,,145,B,
1,Michal Sztangret,M,21,Poland,Raw,Juniors 20-23,110.5,125,,,,,95,100,105,105,,,,,105,B,
1,Ramón Szeifert,M,21,Slovakia,Raw,Juniors 20-23,138.6,140,,,,,155,165,175,175,,,,,175,B,
1,Sebastian Białachowski,M,45,Poland,Raw,Masters 40-49,66.2,67.5,,,,,120,-127.5,127.5,127.5,,,,,127.5,B,
1,Sebastian Niedziela,M,43,Poland,Raw,Masters 40-49,81.8,82.5,,,,,170,177.5,-180,177.5,,,,,177.5,B,
2,Tomasz Mantur,M,47,Poland,Raw,Masters 40-49,82.4,82.5,,,,,157.5,162.5,167.5,167.5,,,,,167.5,B,
1,Igors Marudins,M,46,Latvia,Raw,Masters 40-49,87.9,90,,,,,150,157.5,-160,157.5,,,,,157.5,B,
2,Ján Cuprišin,M,48,Slovakia,Raw,Masters 40-49,87.2,90,,,,,130,145,-150,145,,,,,145,B,
DQ,Sławomír Purta,M,,Poland,Raw,Masters 40-49,87.8,90,,,,,-155,-155,-157.5,,,,,,,B,
1,Jan Habart,M,45,Germany,Raw,Masters 40-49,100,100,,,,,225,230,-235,230,,,,,230,B,
2,Daniel Górski,M,43,Poland,Raw,Masters 40-49,99.1,100,,,,,175,,,175,,,,,175,B,
3,Andrzej Juraszek,M,44,Poland,Raw,Masters 40-49,94.6,100,,,,,-162.5,162.5,167.5,167.5,,,,,167.5,B,
4,Mihails Rekaikins,M,45,Latvia,Raw,Masters 40-49,95.7,100,,,,,160,-165,-170,160,,,,,160,B,
5,Daniel Wojcik,M,40,Poland,Raw,Masters 40-49,91,100,,,,,130,140,-150,140,,,,,140,B,
1,Tadeusz Serafin,M,49,Poland,Raw,Masters 40-49,101.2,110,,,,,200,210,-215,210,,,,,210,B,
2,Tomasz Napierała,M,42,Poland,Raw,Masters 40-49,103.7,110,,,,,175,180,-185,180,,,,,180,B,
3,István Lugasi,M,49,Hungary,Raw,Masters 40-49,109.9,110,,,,,140,150,-155,150,,,,,150,B,
1,Vlastimil Kužel,M,44,Czechia,Raw,Masters 40-49,114.7,125,,,,,240,-250,,240,,,,,240,B,
2,Kuba Koryzna,M,45,Poland,Raw,Masters 40-49,111.8,125,,,,,195,,,195,,,,,195,B,
3,Michal Kráľ,M,40,Slovakia,Raw,Masters 40-49,122.6,125,,,,,165,170,175,175,,,,,175,B,
1,Maciek Kiślewski,M,42,Poland,Raw,Masters 40-49,127,140,,,,,200,210,215,215,,,,,215,B,
DQ,Tomasz Zowsik,M,44,Poland,Raw,Masters 40-49,142.3,140+,,,,,-240,-240,-240,,,,,,,B,
1,Jerzy Czajka,M,57,Poland,Raw,Masters 50-59,89.2,90,,,,,165,175,180,180,,,,,180,B,
1,Oldřich Procházka,M,51,Czechia,Raw,Masters 50-59,98.7,100,,,,,180,190,195,195,,,,,195,B,
2,Oļegs Illarionovs,M,56,Latvia,Raw,Masters 50-59,94.1,100,,,,,170,-180,-190,170,,,,,170,B,
1,Krzysztof Golendzinowski,M,50,Poland,Raw,Masters 50-59,105.8,110,,,,,165,175,185,185,,,,,185,B,
2,Göran Vente,M,54,Germany,Raw,Masters 50-59,104.5,110,,,,,160,170,-177.5,170,,,,,170,B,
1,Adam Ubertowski,M,55,Poland,Raw,Masters 50-59,122.3,125,,,,,150,162.5,,162.5,,,,,162.5,B,
1,László Baross,M,51,Hungary,Raw,Masters 50-59,125.7,140,,,,,145,155,160,160,,,,,160,B,
2,Robert Marciniak,M,54,Poland,Raw,Masters 50-59,138.2,140,,,,,140,-150,160,160,,,,,160,B,
1,Csaba Molnár,M,57,Hungary,Raw,Masters 50-59,140.4,140+,,,,,180,187.5,192.5,192.5,,,,,192.5,B,
2,Grzegorz Kantor,M,50,Poland,Raw,Masters 50-59,144.9,140+,,,,,-175,175,182.5,182.5,,,,,182.5,B,
1,Zbigniew Koper,M,68,Poland,Raw,Masters 60-69,75,75,,,,,95,102.5,-105,102.5,,,,,102.5,B,
2,Mieczysłąw Maczka,M,67,Germany,Raw,Masters 60-69,75,75,,,,,100,,,100,,,,,100,B,
1,Marek Strzałkowski,M,62,Poland,Raw,Masters 60-69,88.7,90,,,,,135,140,-145,140,,,,,140,B,
2,Frank Lubitz,M,62,Germany,Raw,Masters 60-69,89.1,90,,,,,120,130,-140,130,,,,,130,B,
1,Leszek Pasieka,M,66,Poland,Raw,Masters 60-69,92.3,100,,,,,160,165,-170,165,,,,,165,B,
2,Frank Kutzsch,M,66,Germany,Raw,Masters 60-69,94,100,,,,,140,147.5,152.5,152.5,,,,,152.5,B,
1,Krzysztof Kłopocki,M,62,Poland,Raw,Masters 60-69,104.5,110,,,,,170,175,-180,175,,,,,175,B,
2,Roman Raczykowski,M,61,Poland,Raw,Masters 60-69,103.5,110,,,,,140,-145,145,145,,,,,145,B,
1,Henryk Świerzy,M,66,Poland,Raw,Masters 60-69,112.1,125,,,,,150,-155,155,155,,,,,155,B,
2,Andreas Friedel,M,62,Germany,Raw,Masters 60-69,111.5,125,,,,,140,145,,145,,,,,145,B,
1,Roman Wanot,M,74,Poland,Raw,Masters 70+,87.8,90,,,,,85,90,95,95,,,,,95,B,
1,Stefan Sochaňski,M,73,Poland,Raw,Masters 70+,90.1,100,,,,,70,75,,75,,,,,75,B,
1,Mateusz Trzciński,M,26,Poland,Raw,MPF,67.3,67.5,,,,,120,130,-140,130,,,,,130,B,
2,Sebastian Białachowski,M,45,Poland,Raw,MPF,66.2,67.5,,,,,120,-127.5,127.5,127.5,,,,,127.5,B,
1,Mieczysłąw Maczka,M,67,Germany,Raw,MPF,75,75,,,,,100,,,100,,,,,100,B,
1,Stanisław Gąsienica-Samek,M,38,Poland,Raw,MPF,82,82.5,,,,,175,182.5,-187.5,182.5,,,,,182.5,B,
2,Hubert Raba,M,23,Poland,Raw,MPF,78.7,82.5,,,,,155,162.5,167.5,167.5,,,,,167.5,B,
3,Tomasz Mantur,M,47,Poland,Raw,MPF,82.4,82.5,,,,,157.5,162.5,167.5,167.5,,,,,167.5,B,
1,Dawid Trzciński,M,31,Poland,Raw,MPF,89,90,,,,,195,202.5,207.5,207.5,,,,,207.5,B,
2,Grzegorz Joka,M,34,Poland,Raw,MPF,89.9,90,,,,,170,177.5,182.5,182.5,,,,,182.5,B,
1,Tomasz Trzciński,M,,Poland,Raw,MPF,99.8,100,,,,,205,210,215,215,,,,,215,B,
2,Grzegorz Kopaniarz,M,31,Poland,Raw,MPF,96.8,100,,,,,190,200,-207.5,200,,,,,200,B,
3,Mateusz Młynarczyk,M,33,Poland,Raw,MPF,99.7,100,,,,,190,-195,,190,,,,,190,B,
4,Stefan Sochaňski,M,73,Poland,Raw,MPF,90.1,100,,,,,70,75,,75,,,,,75,B,
1,Aleksander Kita,M,39,Poland,Raw,MPF,101.2,110,,,,,195,200,202.5,202.5,,,,,202.5,B,
2,Damian Markowski,M,31,Poland,Raw,MPF,106.6,110,,,,,190,200,-202.5,200,,,,,200,B,
3,Paweł Marczak,M,34,Poland,Raw,MPF,102.3,110,,,,,180,-190,195,195,,,,,195,B,
4,Michał Matynia,M,34,Poland,Raw,MPF,100.2,110,,,,,172.5,180,-185,180,,,,,180,B,
5,Tomasz Napierała,M,42,Poland,Raw,MPF,103.7,110,,,,,175,180,-185,180,,,,,180,B,
6,Michał Sawicki,M,37,Poland,Raw,MPF,100.1,110,,,,,155,165,-177.5,165,,,,,165,B,
7,Kacper Bialek,M,22,Poland,Raw,MPF,105.9,110,,,,,157.5,165,-170,165,,,,,165,B,
1,Radosław Smoliński,M,37,Poland,Raw,MPF,123.1,125,,,,,205,215,-220,215,,,,,215,B,
2,Karol Prawdzik,M,29,Poland,Raw,MPF,124.1,125,,,,,200,,,200,,,,,200,B,
3,Marcin Nisiewicz,M,29,Poland,Raw,MPF,119.1,125,,,,,185,192.5,-200,192.5,,,,,192.5,B,
4,Artur Wisniewski,M,,Poland,Raw,MPF,116.5,125,,,,,170,-180,-180,170,,,,,170,B,
1,Mateusz Trzciński,M,26,Poland,Raw,Open,67.3,67.5,,,,,120,130,-140,130,,,,,130,B,
2,Sebastian Białachowski,M,45,Poland,Raw,Open,66.2,67.5,,,,,120,-127.5,127.5,127.5,,,,,127.5,B,
3,Dominik Szczebak,M,25,Poland,Raw,Open,65,67.5,,,,,100,105,-107.5,105,,,,,105,B,
1,Maciej Kreczmer,M,27,Poland,Raw,Open,74.7,75,,,,,170,175,177.5,177.5,,,,,177.5,B,
2,Dawid Rudnicki,M,33,Poland,Raw,Open,74.5,75,,,,,135,145,-150,145,,,,,145,B,
1,Stanisław Gąsienica-Samek,M,38,Poland,Raw,Open,82,82.5,,,,,175,182.5,-187.5,182.5,,,,,182.5,B,
2,Stanislav Beneš,M,32,Czechia,Raw,Open,79.6,82.5,,,,,170,180,-182.5,180,,,,,180,B,
3,Damian Redzynia,M,,,Raw,Open,81,82.5,,,,,130,135,-142.5,135,,,,,135,B,
1,Dawid Trzciński,M,31,Poland,Raw,Open,89,90,,,,,195,202.5,207.5,207.5,,,,,207.5,B,
2,Tomáš Ryšavý,M,30,Slovakia,Raw,Open,88.5,90,,,,,180,195,205,205,,,,,205,B,
3,Piotr Sadowski,M,29,Poland,Raw,Open,89.1,90,,,,,190,195,-200,195,,,,,195,B,
4,Grzegorz Joka,M,34,Poland,Raw,Open,89.9,90,,,,,170,177.5,182.5,182.5,,,,,182.5,B,
5,Patryk Kaczmarek,M,26,Poland,Raw,Open,89.5,90,,,,,170,-175,-175,170,,,,,170,B,
6,Mariusz Marszalik,M,26,Poland,Raw,Open,88.1,90,,,,,167.5,,,167.5,,,,,167.5,B,
7,Adrian Wojtowicz,M,30,Poland,Raw,Open,87.8,90,,,,,160,165,-167.5,165,,,,,165,B,
8,Paweł Likus,M,31,Poland,Raw,Open,90,90,,,,,162.5,-167.5,,162.5,,,,,162.5,B,
1,Jan Habart,M,45,Germany,Raw,Open,100,100,,,,,225,230,-235,230,,,,,230,B,
2,Tomasz Trzciński,M,,Poland,Raw,Open,99.8,100,,,,,205,210,215,215,,,,,215,B,
3,Daniel Duduš,M,24,Czechia,Raw,Open,98.8,100,,,,,190,-205,205,205,,,,,205,B,
4,Grzegorz Kopaniarz,M,31,Poland,Raw,Open,96.8,100,,,,,190,200,-207.5,200,,,,,200,B,
5,Kamil Byszewski,M,,Poland,Raw,Open,99.8,100,,,,,200,-205,-207.5,200,,,,,200,B,
6,Mateusz Młynarczyk,M,33,Poland,Raw,Open,99.7,100,,,,,190,-195,,190,,,,,190,B,
7,Daniel Górski,M,43,Poland,Raw,Open,99.1,100,,,,,175,,,175,,,,,175,B,
1,Marcin Gołębiewski,M,30,Poland,Raw,Open,107.3,110,,,,,210,225,235,235,,,,,235,B,
2,Krystian Rudnicki,M,37,Poland,Raw,Open,107.7,110,,,,,200,210,-215,210,,,,,210,B,
3,Aleksander Kita,M,39,Poland,Raw,Open,101.2,110,,,,,195,200,202.5,202.5,,,,,202.5,B,
4,Damian Markowski,M,31,Poland,Raw,Open,106.6,110,,,,,190,200,-202.5,200,,,,,200,B,
5,Paweł Marczak,M,34,Poland,Raw,Open,102.3,110,,,,,180,-190,195,195,,,,,195,B,
6,Robert Jurzyk,M,26,Poland,Raw,Open,106.4,110,,,,,190,195,-200,195,,,,,195,B,
7,Michał Matynia,M,34,Poland,Raw,Open,100.2,110,,,,,172.5,180,-185,180,,,,,180,B,
8,Michał Sawicki,M,37,Poland,Raw,Open,100.1,110,,,,,155,165,-177.5,165,,,,,165,B,
9,Lukasz Redosz,M,,Poland,Raw,Open,105,110,,,,,155,160,-165,160,,,,,160,B,
1,Vlastimil Kužel,M,44,Czechia,Raw,Open,114.7,125,,,,,240,-250,,240,,,,,240,B,
2,Rafal Czajkowski,M,35,Poland,Raw,Open,116.3,125,,,,,-215,220,225,225,,,,,225,B,
3,Radosław Smoliński,M,37,Poland,Raw,Open,123.1,125,,,,,205,215,-220,215,,,,,215,B,
4,Adam Sławnikowski,M,35,Poland,Raw,Open,117.5,125,,,,,200,207.5,-215,207.5,,,,,207.5,B,
5,Karol Prawdzik,M,29,Poland,Raw,Open,124.1,125,,,,,200,,,200,,,,,200,B,
6,Marcin Nisiewicz,M,29,Poland,Raw,Open,119.1,125,,,,,185,192.5,-200,192.5,,,,,192.5,B,
7,Artur Wisniewski,M,,Poland,Raw,Open,116.5,125,,,,,170,-180,-180,170,,,,,170,B,
1,Adam Laskawski,M,37,Poland,Raw,Open,132.9,140,,,,,247.5,255,-260,255,,,,,255,B,
2,Piotr Świderski,M,29,Poland,Raw,Open,130.9,140,,,,,200,205,220,220,,,,,220,B,
1,Rafał Roch,M,39,Poland,Raw,Paralympic,53,56,,,,,147.5,152.5,157.5,157.5,,,,,157.5,B,
1,Tomasz Wolski,M,32,Poland,Raw,Paralympic,67.2,67.5,,,,,120,125,-130,125,,,,,125,B,
1,Damian Kaszuba,M,31,Poland,Raw,Paralympic,82,82.5,,,,,140,-145,-145,140,,,,,140,B,
1,Marek Strzałkowski,M,62,Poland,Raw,Paralympic,88.7,90,,,,,135,140,-145,140,,,,,140,B,
1,Dominik Kantner,M,15,Poland,Raw,Teen 13-15,57,60,,,,,60,65,70,70,,,,,70,B,
2,Marcel Jus,M,14,Poland,Raw,Teen 13-15,59.8,60,,,,,-65,65,-72.5,65,,,,,65,B,
3,Jan Walania,M,14,Poland,Raw,Teen 13-15,56.9,60,,,,,45,-50,-50,45,,,,,45,B,
1,Franciszek Jablonski,M,,,Raw,Teen 13-15,65.8,67.5,,,,,-70,-70,70,70,,,,,70,B,
1,Marcin Sobiński,M,16,Poland,Raw,Teen 16-17,74.6,75,,,,,122.5,-127.5,127.5,127.5,,,,,127.5,B,
2,Dawid Bienko,M,17,Poland,Raw,Teen 16-17,74.6,75,,,,,112.5,117.5,-122.5,117.5,,,,,117.5,B,
1,Marcin Zwoliński,M,16,Poland,Raw,Teen 16-17,78.8,82.5,,,,,100,110,112.5,112.5,,,,,112.5,B,
DQ,Kacper Slodkiewicz,M,16,Poland,Raw,Teen 16-17,83.3,90,,,,,-90,-90,-90,,,,,,,B,
1,Ľubomír Dvorový,M,17,Slovakia,Raw,Teen 16-17,91.6,100,,,,,130,135,140,140,,,,,140,B,
1,Ondřej Stellar,M,17,Czechia,Raw,Teen 16-17,107.5,110,,,,,-130,-130,130,130,,,,,130,B,
1,Michał Maruszewski,M,19,Poland,Raw,Teen 18-19,104.1,110,,,,,-130,130,135,135,,,,,135,B,
1,Igors Marudins,M,46,Latvia,Multi-ply,Masters 40-49,87.9,90,,,,,-185,185,,185,,,,,185,B,
1,Mihails Rekaikins,M,45,Latvia,Multi-ply,Masters 40-49,95.7,100,,,,,200,210,-220,210,,,,,210,B,
1,Rafał Pałubicki,M,45,Poland,Multi-ply,Masters 40-49,110.6,125,,,,,330,345,365,365,,,,,365,B,
1,Oskars Zvarts,M,43,Ireland,Multi-ply,Masters 40-49,149.6,140+,,,,,-270,280,-290,280,,,,,280,B,
1,Oļegs Illarionovs,M,56,Latvia,Multi-ply,Masters 50-59,94.1,100,,,,,225,,,225,,,,,225,B,
1,Adam Ubertowski,M,55,Poland,Multi-ply,Masters 50-59,122.3,125,,,,,-195,-195,195,195,,,,,195,B,
1,Csaba Molnár,M,57,Hungary,Multi-ply,Masters 50-59,140.4,140+,,,,,220,235,,235,,,,,235,B,
1,Mieczysłąw Maczka,M,67,Germany,Multi-ply,Masters 60-69,75,75,,,,,100,,,100,,,,,100,B,
1,Søren Bertelsen,M,61,Denmark,Multi-ply,Masters 60-69,94.2,100,,,,,230,240,-278.5,240,,,,,240,B,
1,Mieczysłąw Maczka,M,67,Germany,Multi-ply,MPF,75,75,,,,,100,,,100,,,,,100,B,
1,Mateusz Kierzenkowski,M,32,Poland,Multi-ply,MPF,88.5,90,,,,,200,-207.5,-207.5,200,,,,,200,B,
1,Bogusław Ufir,M,29,Poland,Multi-ply,Open,65.2,67.5,,,,,210,215,-218,215,,,,,215,B,
1,Gracjan Hnatów,M,29,Poland,Multi-ply,Open,82.5,82.5,,,,,265,-292.5,-292.5,265,,,,,265,B,
1,Mateusz Kierzenkowski,M,32,Poland,Multi-ply,Open,88.5,90,,,,,200,-207.5,-207.5,200,,,,,200,B,
DQ,Paweł Likus,M,31,Poland,Multi-ply,Open,90,90,,,,,-270,-270,-270,,,,,,,B,
1,Daniel Kowalczyk,M,44,Poland,Multi-ply,Open,95.4,100,,,,,307.5,315,-325,315,,,,,315,B,
1,Tomasz Obcowski,M,,,Multi-ply,Open,104.5,110,,,,,-360,360,-400.5,360,,,,,360,B,
1,Rafał Pałubicki,M,45,Poland,Multi-ply,Open,110.6,125,,,,,330,345,365,365,,,,,365,B,
1,Levon Hakobyan,M,15,Armenia,Multi-ply,Teen 13-15,51.4,52,,,,,70,-75,75,75,,,,,75,B,
1,Remigiusz Zwoliński,M,18,Poland,Multi-ply,Teen 18-19,98.3,100,,,,,-250,250,260,260,,,,,260,B,
1,Tomasz Napierała,M,42,Poland,Unlimited,MPF,103.7,110,,,,,230,250,265,265,,,,,265,B,
1,Marcin Nisiewicz,M,29,Poland,Unlimited,MPF,119.1,125,,,,,230,250,280,280,,,,,280,B,
2,Artur Wisniewski,M,,,Unlimited,MPF,116.5,125,,,,,180,-200,-230,180,,,,,180,B,
1,Rafał Maszota,M,45,Poland,Unlimited,MPF,144.8,140+,,,,,-220,220,250,250,,,,,250,B,
1,Maksymilian Lubosik,M,23,Poland,Unlimited,Open,72.8,75,,,,,170,180,190,190,,,,,190,B,
1,Gracjan Hnatów,M,29,Poland,Unlimited,Open,82.5,82.5,,,,,260,292.5,300,300,,,,,300,B,
2,Sebastian Niedziela,M,43,Poland,Unlimited,Open,81.8,82.5,,,,,200,225,-250,225,,,,,225,B,
1,Igors Marudins,M,46,Latvia,Unlimited,Open,87.9,90,,,,,-190,190,-210,190,,,,,190,B,
2,Edward Homanowski,M,46,Poland,Unlimited,Open,88.9,90,,,,,170,185,-195,185,,,,,185,B,
1,Sebastian Dąbrowski,M,41,Poland,Unlimited,Open,97.1,100,,,,,340,355,-365,355,,,,,355,B,
2,Oļegs Illarionovs,M,56,Latvia,Unlimited,Open,94.1,100,,,,,220,230,-240,230,,,,,230,B,
3,Kamil Byszewski,M,,,Unlimited,Open,99.8,100,,,,,200,210,-232.5,210,,,,,210,B,
4,Alan Walkowiak,M,19,Poland,Unlimited,Open,97.3,100,,,,,-160,160,-180,160,,,,,160,B,
1,Tomasz Obcowski,M,43,Poland,Unlimited,Open,104.5,110,,,,,340,355,-370,355,,,,,355,B,
2,Lukasz Kaim,M,34,Poland,Unlimited,Open,108.2,110,,,,,-310,310,325,325,,,,,325,B,
3,Artur Redestowicz,M,47,Poland,Unlimited,Open,108.8,110,,,,,310,-340,-340,310,,,,,310,B,
4,Tomasz Napierała,M,42,Poland,Unlimited,Open,103.7,110,,,,,230,250,265,265,,,,,265,B,
1,Peter Bolf,M,,,Unlimited,Open,117.8,125,,,,,352.5,-365,-365,352.5,,,,,352.5,B,
2,Rafał Pałubicki,M,45,Poland,Unlimited,Open,110.6,125,,,,,350,-360,-360,350,,,,,350,B,
3,Jozef Harandza,M,39,Slovakia,Unlimited,Open,118.7,125,,,,,300,325,340,340,,,,,340,B,
4,Marcin Nisiewicz,M,29,Poland,Unlimited,Open,119.1,125,,,,,230,250,280,280,,,,,280,B,
5,Seweryn Bania,M,38,Poland,Unlimited,Open,116.1,125,,,,,240,-260,270,270,,,,,270,B,
6,Artur Wisniewski,M,,,Unlimited,Open,116.5,125,,,,,180,-200,-230,180,,,,,180,B,
1,Robert Wiejas,M,44,Poland,Unlimited,Open,140.9,140+,,,,,-300,315,325,325,,,,,325,B,
2,Rafał Maszota,M,45,Poland,Unlimited,Open,144.8,140+,,,,,-220,220,250,250,,,,,250,B,
1,Adam Zak,M,21,Poland,Raw,Juniors 20-23,69.1,75,,,,,,,,,170,182.5,190,190,190,D,
1,David Hanincik,M,22,Slovakia,Raw,Juniors 20-23,77.5,82.5,,,,,,,,,200,210,-215,210,210,D,
2,Dawid Gierszon,M,20,Poland,Raw,Juniors 20-23,82.2,82.5,,,,,,,,,185,-200,200,200,200,D,
1,Jakub Czech,M,22,Poland,Raw,Juniors 20-23,88,90,,,,,,,,,250,,,250,250,D,
1,Henryk Malysz Tomasz,M,22,Poland,Raw,Juniors 20-23,91.6,100,,,,,,,,,190,205,-215,205,205,D,
1,Ramón Szeifert,M,21,Poland,Raw,Juniors 20-23,138.6,140,,,,,,,,,250,265,-280,265,265,D,
1,Paweł Pracownik,M,48,Poland,Raw,Masters 40-49,74.7,75,,,,,,,,,270,290,-300,290,290,D,
1,Karen Hovhannisyan,M,44,Armenia,Raw,Masters 40-49,82.5,82.5,,,,,,,,,180,190,202.5,202.5,202.5,D,
1,David Kunzling,M,44,Germany,Raw,Masters 40-49,88.9,90,,,,,,,,,170,185,200,200,200,D,
1,Sebastian Brzyski,M,42,Poland,Raw,Masters 40-49,97.4,100,,,,,,,,,200,220,240,240,240,D,
2,Daniel Górski,M,43,Poland,Raw,Masters 40-49,99.1,100,,,,,,,,,230,,,230,230,D,
3,Marcin Oleksy,M,41,Poland,Raw,Masters 40-49,95,100,,,,,,,,,190,200,205,205,205,D,
4,Dariusz Zwoliński,M,47,Poland,Raw,Masters 40-49,93.9,100,,,,,,,,,180,190,200,200,200,D,
1,Mariusz Bartołowicz,M,42,Poland,Raw,Masters 40-49,109.8,110,,,,,,,,,280,290,-296,290,290,D,
2,Grzegorz Drewniany,M,,,Raw,Masters 40-49,102.7,110,,,,,,,,,265,,,265,265,D,
1,Robert Drozdowski,M,43,Poland,Raw,Masters 40-49,124.7,125,,,,,,,,,290,300,-310,300,300,D,
2,Michal Kráľ,M,40,Slovakia,Raw,Masters 40-49,122.6,125,,,,,,,,,230,-240,240,240,240,D,
1,Jozef Tomaszewski,M,41,Poland,Raw,Masters 40-49,136.6,140,,,,,,,,,290,-310,-310,290,290,D,
1,Mariusz Wyrozębski,M,41,Poland,Raw,Masters 40-49,140.2,140+,,,,,,,,,230,255,-270,255,255,D,
1,Peter Seger,M,54,Sweden,Raw,Masters 50-59,120.4,125,,,,,,,,,295,310,-317.5,310,310,D,
2,Robert Nemś,M,53,Poland,Raw,Masters 50-59,118,125,,,,,,,,,250,260,,260,260,D,
1,Robert Marciniak,M,54,Poland,Raw,Masters 50-59,138.2,140,,,,,,,,,200,205,-210,205,205,D,
NS,Mieczysłąw Maczka,M,67,Germany,Raw,Masters 60-69,,,,,,,,,,,,,,,,D,
1,Ireneusz Czupryn,M,66,Poland,Raw,Masters 60-69,85.4,90,,,,,,,,,155,165,175,175,175,D,
1,Frank Kutzsch,M,66,Germany,Raw,Masters 60-69,94,100,,,,,,,,,200,220,230,230,230,D,
1,Józef Sokołowski,M,66,Poland,Raw,Masters 60-69,105.7,110,,,,,,,,,290,,,290,290,D,
1,Ryszard Śliwiński,M,72,Poland,Raw,Masters 70+,73.3,75,,,,,,,,,132.5,142.5,147.5,147.5,147.5,D,
1,Jan Łuka,M,72,Poland,Raw,Masters 70+,82,82.5,,,,,,,,,200,210,,210,210,D,
1,Stefan Sochaňski,M,73,Poland,Raw,Masters 70+,90.1,100,,,,,,,,,170,-185,,170,170,D,
NS,Mieczysłąw Maczka,M,67,Germany,Raw,MPF,75,75,,,,,,,,,,,,,,SBD,
1,Konrad Czupryn,M,33,Poland,Raw,MPF,93,100,,,,,,,,,210,220,230,230,230,D,
2,Stefan Sochaňski,M,73,Poland,Raw,MPF,90.1,100,,,,,,,,,170,-185,,170,170,D,
1,Mariusz Bartołowicz,M,42,Poland,Raw,MPF,109.8,110,,,,,,,,,280,290,-296,290,290,D,
2,Marcin Gebusiak,M,39,Poland,Raw,MPF,105.5,110,,,,,,,,,205,215,-220,215,215,D,
1,Robert Drozdowski,M,43,Poland,Raw,MPF,124.7,125,,,,,,,,,290,300,-310,300,300,D,
2,Krzysztof Grzemiński,M,,,Raw,MPF,115.9,125,,,,,,,,,250,-260,-260,250,250,D,
1,Dominik Szczebak,M,25,Poland,Raw,Open,65,67.5,,,,,,,,,180,190,-202.5,190,190,D,
1,Paweł Pracownik,M,48,Poland,Raw,Open,74.7,75,,,,,,,,,270,290,-300,290,290,D,
2,Maciej Dobrzyński,M,30,Poland,Raw,Open,73.3,75,,,,,,,,,200,205,-217.5,205,205,D,
1,Zoran Szilvás,M,25,Poland,Raw,Open,80,82.5,,,,,,,,,240,250,-260,250,250,D,
2,Jakub Glowacki,M,37,Poland,Raw,Open,76.1,82.5,,,,,,,,,180,-190,-192.5,180,180,D,
1,Tomáš Ryšavý,M,30,Slovakia,Raw,Open,88.5,90,,,,,,,,,280.5,292.5,-310,292.5,292.5,D,
1,Lukasz Drozdz,M,30,Poland,Raw,Open,99,100,,,,,,,,,260,280,292.5,292.5,292.5,D,
2,Jakub Pączkowski,M,24,Poland,Raw,Open,91.3,100,,,,,,,,,265,280,290,290,290,D,
3,Tomáš Kríž,M,29,Slovakia,Raw,Open,94.4,100,,,,,,,,,250,-255,255,255,255,D,
4,Konrad Czupryn,M,33,Poland,Raw,Open,93,100,,,,,,,,,210,220,230,230,230,D,
5,Daniel Górski,M,43,Poland,Raw,Open,99.1,100,,,,,,,,,230,,,230,230,D,
1,Marcin Gebusiak,M,39,Poland,Raw,Open,105.5,110,,,,,,,,,205,215,-220,215,215,D,
1,Jozef Harandza,M,39,Slovakia,Raw,Open,118.7,125,,,,,,,,,240,-265,265,265,265,D,
2,Robert Nemś,M,53,Poland,Raw,Open,118,125,,,,,,,,,250,260,,260,260,D,
3,Krzysztof Grzemiński,M,,,Raw,Open,115.9,125,,,,,,,,,250,-260,-260,250,250,D,
1,Piotr Stefaniuk,M,31,Poland,Raw,Paralympic,65.6,67.5,,,,,,,,,220,,,220,220,D,
1,Jan Walania,M,14,Poland,Raw,Teen 13-15,56.9,60,,,,,,,,,80,-90,-95,80,80,D,
1,Narek Tamrazyan,M,14,Armenia,Raw,Teen 13-15,67.5,67.5,,,,,,,,,170,180,185,185,185,D,
1,Sebastian Tukiendorf,M,15,Poland,Raw,Teen 13-15,72.5,75,,,,,,,,,180,190,195,195,195,D,
1,Dominik Rutkowski,M,,Poland,Raw,Teen 13-15,93.8,100,,,,,,,,,195,205,-210,205,205,D,
1,Arkadiusz Woźniak,M,16,Poland,Raw,Teen 16-17,66.8,67.5,,,,,,,,,130,150,160.5,160.5,160.5,D,
1,Mateusz Kubiak,M,17,Poland,Raw,Teen 16-17,81.4,82.5,,,,,,,,,185,195,201,201,201,D,
2,Maksymilian Nowak,M,16,Poland,Raw,Teen 16-17,78.1,82.5,,,,,,,,,185,-195,195,195,195,D,
3,Jakub Jarończyk,M,16,Poland,Raw,Teen 16-17,80.8,82.5,,,,,,,,,160,175,187.5,187.5,187.5,D,
1,Gracjan Brzeziński,M,17,Poland,Raw,Teen 16-17,87.2,90,,,,,,,,,200,215.5,-220,215.5,215.5,D,
1,Dominik Pierzynowski,M,17,Poland,Raw,Teen 16-17,95.1,100,,,,,,,,,180,-190,190,190,190,D,
1,Radosław Bober,M,18,Poland,Raw,Teen 18-19,58.3,60,,,,,,,,,140,150,155,155,155,D,
1,Lukas Orlik,M,19,Czechia,Raw,Teen 18-19,73,75,,,,,,,,,190,200,215,215,215,D,
1,Ján Cuprišin,M,48,Slovakia,Multi-ply,Masters 40-49,87.2,90,,,,,,,,,230,240,250,250,250,D,
1,Niclas Friberg,M,,Sweden,Multi-ply,Masters 40-49,94.6,100,,,,,,,,,255,-272.5,-320,255,255,D,
2,Hayk Afyan,M,44,Armenia,Multi-ply,Masters 40-49,99.1,100,,,,,,,,,180,200,-205,200,200,D,
1,Grzegorz Drewniany,M,45,Poland,Multi-ply,Masters 40-49,102.7,110,,,,,,,,,265,,,265,265,D,
1,Robert Nemś,M,,,Multi-ply,Masters 50-59,118,125,,,,,,,,,260,,,260,260,D,
1,Józef Sokołowski,M,66,Poland,Multi-ply,Masters 60-69,105.7,110,,,,,,,,,290,,,290,290,D,
1,Stefan Sochaňski,M,73,Poland,Multi-ply,Masters 70+,90.1,100,,,,,,,,,170,,,170,170,D,
1,Stefan Sochaňski,M,73,Poland,Multi-ply,MPF,90.1,100,,,,,,,,,170,,,170,170,D,
1,Ara Khachatryan,M,39,Armenia,Multi-ply,Open,80.3,82.5,,,,,,,,,210,-230,-230,210,210,D,
1,Niclas Friberg,M,,Sweden,Multi-ply,Open,94.6,100,,,,,,,,,255,-272.5,-320,255,255,D,
1,Leon Pavlovic,M,29,Norway,Multi-ply,Open,105.6,110,,,,,,,,,275,285,-295,285,285,D,
1,Peter Hallberg,M,34,Sweden,Multi-ply,Open,120.9,125,,,,,,,,,300,317.5,325,325,325,D,
2,Péter Pintér,M,36,Slovakia,Multi-ply,Open,124.5,125,,,,,,,,,280,302.5,-310,302.5,302.5,D,
3,Robert Nemś,M,,,Multi-ply,Open,118,125,,,,,,,,,260,,,260,260,D,
1,Daniel Górski,M,43,Poland,Unlimited,Masters 40-49,99.1,100,,,,,,,,,230,,,230,230,D,
1,Maciej Markowski #2,M,37,Slovakia,Unlimited,Open,82.4,82.5,,,,,,,,,240,255,-265,255,255,D,
DQ,Dominik Kąkol,M,28,Poland,Unlimited,Open,89.4,90,,,,,,,,,-240,,,,,D,
1,Mateusz Piórkowski,M,31,Poland,Unlimited,Open,93.4,100,,,,,,,,,265,275,285,285,285,D,
2,Bartosz Szczepankiewicz,M,22,Poland,Unlimited,Open,98.8,100,,,,,,,,,282.5,-302.5,-302.5,282.5,282.5,D,
3,Jakub Pączkowski,M,24,Poland,Unlimited,Open,91.3,100,,,,,,,,,250,260,275,275,275,D,
4,Tomáš Kríž,M,,,Unlimited,Open,94.4,100,,,,,,,,,250,262.5,265,265,265,D,
5,Tomasz Brandt,M,40,Poland,Unlimited,Open,99,100,,,,,,,,,190,220,240,240,240,D,
6,Daniel Górski,M,43,Poland,Unlimited,Open,99.1,100,,,,,,,,,230,,,230,230,D,
1,Robert Nemś,M,,,Unlimited,Open,118,125,,,,,,,,,260,,,260,260,D,
