Division,WeightClassKg,Place,Name,Team,BodyweightKg,Best3SquatKg,Best3BenchKg,Best3DeadliftKg,TotalKg,Equipment,Event,Sex,BirthDate
Boys,67.13,1,Andy Rico,Port Lavaca Calhoun,63.68,149.69,102.06,156.49,408.23,Single-ply,SBD,M,
Boys,67.13,2,Derec Chavez,Port Lavaca Calhoun,64.95,136.08,72.57,181.44,390.09,Single-ply,SBD,M,
Boys,67.13,3,Tayden Grimes,Woodsboro,62.05,138.35,70.31,136.08,344.73,Single-ply,SBD,M,
Boys,67.13,4,Glenn Giddens,Woodsboro,64.95,124.74,74.84,124.74,324.32,Single-ply,SBD,M,
Boys,74.84,1,Adam Dominguez,Woodsboro,71.94,174.63,88.45,142.88,405.97,Single-ply,SBD,M,
Boys,82.1,1,Eh Ler Moo,Port Lavaca Calhoun,77.38,172.37,104.33,174.63,451.32,Single-ply,SBD,M,
Boys,82.1,2,Bo Woody,Port Lavaca Calhoun,82.1,151.95,81.65,151.95,385.55,Single-ply,SBD,M,
Boys,89.81,1,Pavan Patel,Port Lavaca Calhoun,88.68,217.72,124.74,247.21,589.67,Single-ply,SBD,M,
Boys,89.81,2,David Perez,Port Lavaca Calhoun,87.63,181.44,106.59,190.51,478.54,Single-ply,SBD,M,
Boys,89.81,3,Colton Wiginton,Woodsboro,85.18,181.44,102.06,183.7,467.2,Single-ply,SBD,M,
Boys,89.81,4,Bryce Nichlos,Port Lavaca Calhoun,87.91,154.22,83.91,136.08,374.21,Single-ply,SBD,M,
Boys,99.79,1,Jose Silguero,Kingsville King,92.53,145.15,83.91,154.22,383.29,Single-ply,SBD,M,
Boys,109.77,1,Gabriel Garza,Kingsville King,101.6,158.76,92.99,158.76,410.5,Single-ply,SBD,M,
Boys,124.74,1,Gage Spencer,Port Lavaca Calhoun,116.94,272.16,142.88,249.48,664.51,Single-ply,SBD,M,
Boys,124.74,2,Christian Rodriguez #1,Port Lavaca Calhoun,123.01,272.16,136.08,192.78,601.01,Single-ply,SBD,M,
Boys,124.74,3,Tiger Perez,Kingsville King,123.88,188.24,138.35,210.92,537.51,Single-ply,SBD,M,
Boys,139.71,1,Vinson Samudio,Port Lavaca Calhoun,131.54,272.16,127.01,199.58,598.74,Single-ply,SBD,M,
Boys,139.71+,1,Artemio Herrera,Port Lavaca Calhoun,147.78,208.65,131.54,183.7,523.9,Single-ply,SBD,M,
Boys,139.71+,2,Tomas Amaya,Kingsville King,208.65,176.9,117.93,142.88,437.72,Single-ply,SBD,M,
Boys,,NS,Jose Reynaga,Port Lavaca Calhoun,,,,,,Single-ply,SBD,M,
Boys,,NS,Reed Fricks,Woodsboro,,,,,,Single-ply,SBD,M,
Boys,,NS,Izak Gonzalez,Woodsboro,,,,,,Single-ply,SBD,M,
