Division,WeightClassKg,Place,Name,Team,BodyweightKg,Best3SquatKg,Best3BenchKg,Best3DeadliftKg,TotalKg,Equipment,Event,Sex,BirthDate
Boys,51.71,1,Joshua Wilson,Frisco Emerson,51.35,102.06,63.5,108.86,274.42,Single-ply,SBD,M,
Boys,51.71,2,Conner Peterson,Frisco Heritage,50.76,102.06,63.5,106.59,272.16,Single-ply,SBD,M,
Boys,51.71,3,Vivaan Sharma,Frisco Heritage,51.12,74.84,61.23,102.06,238.14,Single-ply,SBD,M,
Boys,55.79,1,Adrian Sanders,Frisco Heritage,53.21,95.25,47.63,104.33,247.21,Single-ply,SBD,M,
Boys,59.87,1,Blake Erlewein,Frisco Reedy,59.51,188.24,106.59,183.7,478.54,Single-ply,SBD,M,
Boys,67.13,1,Ryan Nash,Frisco Reedy,66.45,251.74,142.88,240.4,635.03,Single-ply,SBD,M,
Boys,67.13,2,Tyler Earwood,Frisco Reedy,66.72,199.58,124.74,192.78,517.1,Single-ply,SBD,M,
Boys,67.13,3,Donovan Armistead,Frisco Reedy,66.59,192.78,117.93,188.24,498.95,Single-ply,SBD,M,
Boys,67.13,4,Nate Leal,Frisco Emerson,66.18,127.01,70.31,136.08,333.39,Single-ply,SBD,M,
Boys,74.84,1,Josef Fuksa,Frisco Reedy,74.25,219.99,136.08,226.8,582.87,Single-ply,SBD,M,
Boys,74.84,2,Bailey Ohrn,Frisco Emerson,69.94,172.37,111.13,215.46,498.95,Single-ply,SBD,M,
Boys,74.84,3,Watkins Liam,Frisco Reedy,73.35,183.7,129.27,183.7,496.68,Single-ply,SBD,M,
Boys,74.84,4,Parker Huizinga,Frisco Reedy,73.89,179.17,111.13,197.31,487.61,Single-ply,SBD,M,
Boys,74.84,5,Bryson Flaherty,Frisco Memorial,74.21,183.7,124.74,176.9,485.34,Single-ply,SBD,M,
Boys,74.84,6,Chris Guiles,Frisco Heritage,74.12,142.88,77.11,142.88,362.87,Single-ply,SBD,M,
Boys,82.1,1,Cooper Benston,Frisco Reedy,77.7,197.31,156.49,192.78,546.58,Single-ply,SBD,M,
Boys,82.1,2,Dawson Turrell,Frisco Reedy,80.38,201.85,151.95,192.78,546.58,Single-ply,SBD,M,
Boys,82.1,3,Jake Clark,Frisco Reedy,80.15,183.7,147.42,195.04,526.17,Single-ply,SBD,M,
Boys,82.1,4,James Liebl,Frisco Memorial,80.69,183.7,102.06,190.51,476.27,Single-ply,SBD,M,
Boys,82.1,5,Tim Seo,Frisco Emerson,79.92,147.42,83.91,151.95,383.29,Single-ply,SBD,M,
Boys,89.81,1,Khalil Smith,Frisco Reedy,89.68,226.8,183.7,249.48,659.98,Single-ply,SBD,M,
Boys,89.81,2,Jake Lewis,Frisco Reedy,88.36,222.26,183.7,229.06,635.03,Single-ply,SBD,M,
Boys,89.81,3,Gavin Dennis,Frisco Memorial,87.18,256.28,136.08,217.72,610.08,Single-ply,SBD,M,
Boys,89.81,4,Homzi Nassar,Frisco Heritage,87.91,224.53,158.76,204.12,587.4,Single-ply,SBD,M,
Boys,89.81,5,Jaedyn Kirvin,Frisco Emerson,88.5,167.83,115.67,215.46,498.95,Single-ply,SBD,M,
Boys,89.81,6,Vincent Spano,Frisco Heritage,82.74,183.7,108.86,161.03,453.59,Single-ply,SBD,M,
Boys,99.79,1,Ethan Ang,Frisco Memorial,96.62,238.14,127.01,215.46,580.6,Single-ply,SBD,M,
Boys,99.79,2,Nathan Newland,Frisco Memorial,93.49,208.65,142.88,208.65,560.19,Single-ply,SBD,M,
Boys,99.79,3,Quincy Torrez,Frisco Emerson,96.3,226.8,117.93,190.51,535.24,Single-ply,SBD,M,
Boys,99.79,4,Sean French II,Frisco Heritage,95.35,183.7,113.4,170.1,467.2,Single-ply,SBD,M,
Boys,99.79,5,Malaki Meyer,Frisco Heritage,92.4,142.88,79.38,142.88,365.14,Single-ply,SBD,M,
Boys,109.77,1,Anthony Seay,Frisco Heritage,105.96,249.48,149.69,217.72,616.89,Single-ply,SBD,M,
Boys,109.77,2,Jacob Settle,Frisco Emerson,107.91,183.7,106.59,170.1,460.4,Single-ply,SBD,M,
Boys,109.77,3,Dominic Nolan,Frisco Heritage,100.74,167.83,113.4,158.76,439.98,Single-ply,SBD,M,
Boys,109.77,4,Amjad Khazem,Frisco Heritage,105.14,147.42,90.72,142.88,381.02,Single-ply,SBD,M,
Boys,109.77,5,Kamden Dycee,Frisco Heritage,100.61,133.81,79.38,129.27,342.46,Single-ply,SBD,M,
Boys,124.74,1,Edoreh Jokoh,Frisco Memorial,123.6,210.92,133.81,215.46,560.19,Single-ply,SBD,M,
Boys,124.74,2,Vischer Pruzinsky,Frisco Memorial,116.75,201.85,117.93,219.99,539.77,Single-ply,SBD,M,
Boys,124.74,3,Tyler Cisneros,Frisco Heritage,112.99,183.7,106.59,163.29,453.59,Single-ply,SBD,M,
Boys,124.74,4,Maddox Smith,Frisco Emerson,114.99,145.15,88.45,142.88,376.48,Single-ply,SBD,M,
Boys,139.71,1,Brady Uhlmann,Frisco Memorial,137.03,260.82,183.7,238.14,682.66,Single-ply,SBD,M,
Boys,139.71,2,Tim Richardson,Frisco Emerson,129.95,215.46,102.06,197.31,514.83,Single-ply,SBD,M,
Boys,139.71+,1,Rhamad Brown,Frisco Emerson,168.55,129.27,115.67,165.56,410.5,Single-ply,SBD,M,
