Division,WeightClassKg,Place,Name,Team,BodyweightKg,Best3SquatKg,Best3BenchKg,Best3DeadliftKg,TotalKg,Equipment,Event,Sex,BirthDate
Boys,51.71,1,Jack Carroll,Dallas Highland Park,51.71,127.01,72.57,136.08,335.66,Single-ply,SBD,M,
Boys,51.71,2,Eryn Mills,Richardson,44,113.4,47.63,124.74,285.76,Single-ply,SBD,M,
Boys,51.71,3,Andrew McCord,Richardson,49.9,74.84,54.43,99.79,229.06,Single-ply,SBD,M,
Boys,51.71,4,Mason Alzirjawi,Richardson,50.35,77.11,36.29,106.59,219.99,Single-ply,SBD,M,
Boys,55.79,1,Vinnie Teffaha,Dallas Highland Park,54.43,122.47,72.57,145.15,340.19,Single-ply,SBD,M,
Boys,55.79,2,Omar Carmona,Richardson,53.98,97.52,63.5,127.01,288.03,Single-ply,SBD,M,
Boys,55.79,3,Stephen Stipe,Richardson,55.34,90.72,49.9,111.13,251.74,Single-ply,SBD,M,
Boys,55.79,4,Trent Holley,Richardson Pearce,55.34,61.23,56.7,102.06,219.99,Single-ply,SBD,M,
Boys,67.13,1,Cooper Roberts,Dallas Highland Park,65.77,167.83,106.59,213.19,487.61,Single-ply,SBD,M,
Boys,67.13,2,Gage Dunn,Richardson Lake Highlands,66.68,151.95,92.99,163.29,408.23,Single-ply,SBD,M,
Boys,67.13,3,Jerrimiah Gibson,Richardson,63.96,151.95,81.65,154.22,387.82,Single-ply,SBD,M,
Boys,67.13,4,Brian Bui,Richardson,65.32,136.08,86.18,156.49,378.75,Single-ply,SBD,M,
Boys,67.13,5,Colin Keaton,Richardson Lake Highlands,65.77,129.27,74.84,174.63,378.75,Single-ply,SBD,M,
Boys,67.13,6,Trey Persley,Richardson Pearce,64.41,136.08,70.31,149.69,356.07,Single-ply,SBD,M,
Boys,67.13,7,Chris Grandos,Richardson Berkner,64.86,113.4,74.84,158.76,347,Single-ply,SBD,M,
Boys,67.13,8,Mark Rodriguez,Richardson Pearce,63.96,106.59,52.16,129.27,288.03,Single-ply,SBD,M,
Boys,74.84,1,Tripp Marshall,Richardson Lake Highlands,73.94,183.7,102.06,170.1,455.86,Single-ply,SBD,M,
Boys,74.84,2,Olatoye Olgbami,Richardson Berkner,74.39,142.88,72.57,151.95,367.41,Single-ply,SBD,M,
Boys,74.84,3,Zach Simpson,Richardson Pearce,71.67,113.4,65.77,120.2,299.37,Single-ply,SBD,M,
Boys,74.84,DQ,Jaden Pope,Richardson,73.03,113.4,,111.13,,Single-ply,SBD,M,
Boys,74.84,DQ,Jack Kreusch,Richardson Pearce,68.04,,,,,Single-ply,SBD,M,
Boys,82.1,1,Areion Coln,Richardson,78.02,195.04,124.74,183.7,503.49,Single-ply,SBD,M,
Boys,82.1,2,Malachi Reynolds,Richardson,80.74,201.85,99.79,199.58,501.22,Single-ply,SBD,M,
Boys,82.1,3,Wagner Perry,Dallas Highland Park,81.65,183.7,122.47,190.51,496.68,Single-ply,SBD,M,
Boys,82.1,4,Khaleel Jackson,Richardson Lake Highlands,80.29,176.9,95.25,185.97,458.13,Single-ply,SBD,M,
Boys,82.1,5,Luke Johnson,Richardson Pearce,77.56,133.81,79.38,147.42,360.61,Single-ply,SBD,M,
Boys,82.1,6,Mujtaba Al-Zaid,Richardson Berkner,82.1,127.01,90.72,142.88,360.61,Single-ply,SBD,M,
Boys,82.1,7,Dimitri Papathanasiou,Richardson Pearce,77.11,138.35,72.57,136.08,347,Single-ply,SBD,M,
Boys,82.1,8,Chase Grimaud,Dallas Highland Park,82.1,108.86,86.18,151.95,347,Single-ply,SBD,M,
Boys,89.81,1,Andre Johnson,Richardson Lake Highlands,88.9,208.65,115.67,226.8,551.11,Single-ply,SBD,M,
Boys,89.81,2,Isaac Martinez,Richardson Pearce,83.91,192.78,124.74,215.46,532.97,Single-ply,SBD,M,
Boys,89.81,3,Franklin Mgbojeme,Richardson Berkner,87.09,172.37,102.06,233.6,508.02,Single-ply,SBD,M,
Boys,89.81,4,William White,Dallas Highland Park,88.45,174.63,113.4,188.24,476.27,Single-ply,SBD,M,
Boys,89.81,5,Charlie Barton,Dallas Highland Park,86.18,174.63,95.25,183.7,453.59,Single-ply,SBD,M,
Boys,89.81,6,Charlie Thomason,Dallas Highland Park,89.81,161.03,90.72,163.29,415.04,Single-ply,SBD,M,
Boys,89.81,7,Noah Lilly,Dallas Highland Park,88.45,151.95,86.18,174.63,412.77,Single-ply,SBD,M,
Boys,89.81,8,Harris Leinert,Dallas Highland Park,87.09,142.88,86.18,158.76,387.82,Single-ply,SBD,M,
Boys,89.81,DQ,Enrique Rizvi,Richardson Berkner,85.73,,83.91,167.83,,Single-ply,SBD,M,
Boys,89.81,DQ,Jude Robinson,Richardson Berkner,88,136.08,,147.42,,Single-ply,SBD,M,
Boys,99.79,1,Rodolfo Ramirez,Richardson Pearce,94.35,217.72,117.93,233.6,569.26,Single-ply,SBD,M,
Boys,99.79,2,Justin Murphy,Richardson,93.44,183.7,111.13,242.67,537.51,Single-ply,SBD,M,
Boys,99.79,3,Paul Flowers,Dallas Highland Park,92.99,210.92,115.67,188.24,514.83,Single-ply,SBD,M,
Boys,99.79,4,Michael Jordan,Richardson Berkner,98.88,192.78,115.67,197.31,505.76,Single-ply,SBD,M,
Boys,99.79,5,Joaquin Johnson,Richardson Lake Highlands,92.99,174.63,102.06,215.46,492.15,Single-ply,SBD,M,
Boys,99.79,6,Nadeem Dharamsi,Richardson Berkner,90.26,136.08,106.59,165.56,408.23,Single-ply,SBD,M,
Boys,99.79,7,Daniel Turner,Dallas Highland Park,95.25,149.69,102.06,156.49,408.23,Single-ply,SBD,M,
Boys,99.79,8,Bowen Nussbaum,Dallas Highland Park,95.25,170.1,83.91,154.22,408.23,Single-ply,SBD,M,
Boys,99.79,9,Isaac Royall,Dallas Highland Park,90.72,156.49,77.11,151.95,385.55,Single-ply,SBD,M,
Boys,99.79,10,Jordan Oltmanns,Richardson Pearce,96.62,140.61,72.57,163.29,376.48,Single-ply,SBD,M,
Boys,99.79,11,Chrisitian Mata,Richardson Berkner,95.25,122.47,79.38,170.1,371.95,Single-ply,SBD,M,
Boys,99.79,12,Oscar Interiano,Richardson Pearce,96.62,124.74,68.04,165.56,358.34,Single-ply,SBD,M,
Boys,99.79,13,Jd Copeland,Dallas Highland Park,98.88,183.7,131.54,,315.25,Single-ply,SB,M,
Boys,99.79,14,Christian Tate,Richardson Lake Highlands,97.52,158.76,86.18,68.04,312.98,Single-ply,SBD,M,
Boys,109.77,1,Whit Basso,Dallas Highland Park,101.15,208.65,122.47,215.46,546.58,Single-ply,SBD,M,
Boys,109.77,2,Praise Lucas,Richardson,101.6,197.31,115.67,215.46,528.44,Single-ply,SBD,M,
Boys,109.77,3,Sebastian Borrego,Richardson Lake Highlands,106.59,206.38,104.33,213.19,523.9,Single-ply,SBD,M,
Boys,109.77,4,Lewis Montgomery,Dallas Highland Park,109.77,199.58,111.13,183.7,494.42,Single-ply,SBD,M,
Boys,109.77,5,Spencer Brown,Dallas Highland Park,100.24,167.83,99.79,195.04,462.66,Single-ply,SBD,M,
Boys,109.77,6,William Schneider,Dallas Highland Park,108.86,165.56,74.84,183.7,424.11,Single-ply,SBD,M,
Boys,124.74,1,Jaen Escamilla,Richardson Lake Highlands,122.92,281.23,170.1,235.87,687.19,Single-ply,SBD,M,
Boys,124.74,2,Tony Ayers,Richardson Berkner,124.74,217.72,108.86,222.26,548.85,Single-ply,SBD,M,
Boys,124.74,3,Jaqualyn Johnson,Richardson Lake Highlands,122.92,183.7,102.06,197.31,483.08,Single-ply,SBD,M,
Boys,124.74,4,Jake Watts,Dallas Highland Park,113.4,195.04,95.25,185.97,476.27,Single-ply,SBD,M,
Boys,124.74,5,Don Borders,Richardson Pearce,110.22,142.88,83.91,147.42,374.21,Single-ply,SBD,M,
Boys,139.71,1,James Ward,Richardson Lake Highlands,131.09,251.74,117.93,226.8,596.47,Single-ply,SBD,M,
Boys,139.71,2,JaiDen Johnson,Richardson Berkner,137.44,217.72,117.93,249.48,585.13,Single-ply,SBD,M,
Boys,139.71,3,Jaquavius Kennedy,Richardson Berkner,126.55,217.72,120.2,238.14,576.06,Single-ply,SBD,M,
Boys,139.71+,1,King David Ibeabuchi,Richardson Lake Highlands,140.16,172.37,99.79,190.51,462.66,Single-ply,SBD,M,
