Division,WeightClassKg,Place,Name,Team,BodyweightKg,Best3SquatKg,Best3BenchKg,Best3DeadliftKg,TotalKg,Equipment,Event,Sex
Boys,51.71,1,Damian Gonzalez,Roma,51.62,165.56,95.25,176.9,437.72,Single-ply,SBD,M
Boys,51.71,2,Juan Sanchez #7,Laredo Cigarroa,51.71,127.01,77.11,124.74,328.85,Single-ply,SBD,M
Boys,51.71,3,Alex Garcia #2,Cotulla,49.9,108.86,70.31,124.74,303.91,Single-ply,SBD,M
Boys,55.79,1,Everardo Garcia,Roma,54.25,190.51,97.52,185.97,474,Single-ply,SBD,M
Boys,55.79,2,Eduardo Macias,Laredo Nixon,53.34,147.42,90.72,145.15,383.29,Single-ply,SBD,M
Boys,55.79,3,Ernesto Consuegra,Cotulla,54.88,115.67,70.31,145.15,331.12,Single-ply,SBD,M
Boys,55.79,4,Alexander Comparan,Laredo Nixon,51.98,127.01,63.5,102.06,292.57,Single-ply,SBD,M
Boys,55.79,5,Jacob Barron,Laredo Johnson,52.34,86.18,61.23,102.06,249.48,Single-ply,SBD,M
Boys,55.79,6,Estrada Omar,Laredo Nixon,53.98,83.91,47.63,108.86,240.4,Single-ply,SBD,M
Boys,55.79,DQ,Fabian Garza,Laredo Johnson,52.34,120.2,65.77,,,Single-ply,SBD,M
Boys,59.87,1,Rolando Aguilar,Laredo United,59.42,181.44,86.18,185.97,453.59,Single-ply,SBD,M
Boys,59.87,2,Jerome Martinez,Cotulla,58.97,149.69,83.91,156.49,390.09,Single-ply,SBD,M
Boys,59.87,3,Jesus Garza,Laredo Cigarroa,58.51,106.59,68.04,115.67,290.3,Single-ply,SBD,M
Boys,67.13,1,Jorge Gonzalez #8,Cotulla,66.68,161.03,120.2,172.37,453.59,Single-ply,SBD,M
Boys,67.13,2,Noel Velasquez,Laredo Johnson,65.23,170.1,79.38,156.49,405.97,Single-ply,SBD,M
Boys,67.13,3,Lloyd Soto,Laredo United,66.68,145.15,86.18,163.29,394.63,Single-ply,SBD,M
Boys,67.13,4,Luis Guerra,Laredo Nixon,63.96,133.81,81.65,149.69,365.14,Single-ply,SBD,M
Boys,67.13,5,Jose Hernandez #16,Laredo Nixon,60.42,127.01,74.84,156.49,358.34,Single-ply,SBD,M
Boys,67.13,6,Jake Gutierrez,Laredo Cigarroa,67.13,90.72,70.31,108.86,269.89,Single-ply,SBD,M
Boys,74.84,1,Raul Bermea,Laredo Johnson,72.39,204.12,117.93,213.19,535.24,Single-ply,SBD,M
Boys,74.84,2,Mark Santillan,Laredo Johnson,71.03,204.12,115.67,201.85,521.63,Single-ply,SBD,M
Boys,74.84,3,Joe Chick,Zapata,71.21,185.97,113.4,199.58,498.95,Single-ply,SBD,M
Boys,74.84,4,Perci Alvarez,Zapata,73.48,174.63,111.13,179.17,464.93,Single-ply,SBD,M
Boys,74.84,5,Carlos Carrillo,Laredo Martin,73.94,174.63,90.72,170.1,435.45,Single-ply,SBD,M
Boys,74.84,6,Ricardo Guerra,Laredo United South,71.44,170.1,106.59,142.88,419.57,Single-ply,SBD,M
Boys,74.84,7,Raul Saldana,Roma,73.03,131.54,79.38,142.88,353.8,Single-ply,SBD,M
Boys,74.84,8,Adrian Garza,Zapata,73.48,140.61,68.04,142.88,351.53,Single-ply,SBD,M
Boys,74.84,9,Albert Aguirre,Laredo Cigarroa,70.76,133.81,74.84,131.54,340.19,Single-ply,SBD,M
Boys,82.1,1,David Saldana,Zapata,77.11,217.72,122.47,215.46,555.65,Single-ply,SBD,M
Boys,82.1,2,Giovanni Mendez,Cotulla,81.19,208.65,131.54,204.12,544.31,Single-ply,SBD,M
Boys,82.1,3,Baltazar Perez,Roma,79.02,174.63,97.52,176.9,449.06,Single-ply,SBD,M
Boys,82.1,4,Andrew Sosa,Laredo Nixon,80.83,158.76,95.25,188.24,442.25,Single-ply,SBD,M
Boys,82.1,5,Robey Reyes,Roma,76.93,136.08,83.91,167.83,387.82,Single-ply,SBD,M
Boys,82.1,6,Marcus Zavala,Laredo Martin,78.47,165.56,72.57,147.42,385.55,Single-ply,SBD,M
Boys,82.1,7,Sebas Villagomez,Laredo Alexander,80.29,131.54,58.97,145.15,335.66,Single-ply,SBD,M
Boys,82.1,8,Ricky Herrera,Laredo Alexander,80.74,117.93,63.5,142.88,324.32,Single-ply,SBD,M
Boys,82.1,9,Fernando Morato,Laredo Alexander,80.29,104.33,61.23,115.67,281.23,Single-ply,SBD,M
Boys,82.1,DQ,Francisco Briones,Laredo United South,82.1,183.7,122.47,,,Single-ply,SBD,M
Boys,89.81,1,Damian Gutierrez,Roma,85.73,213.19,149.69,219.99,582.87,Single-ply,SBD,M
Boys,89.81,2,Giovanni Narvaiz,Cotulla,88.45,242.67,127.01,210.92,580.6,Single-ply,SBD,M
Boys,89.81,3,Roel de los Santos,Zapata,87.54,204.12,108.86,217.72,530.7,Single-ply,SBD,M
Boys,89.81,4,Eli Gonzalez,Cotulla,89.36,204.12,106.59,174.63,485.34,Single-ply,SBD,M
Boys,89.81,5,Roberto Rincon,Laredo Martin,84.37,172.37,124.74,183.7,480.81,Single-ply,SBD,M
Boys,89.81,6,Matthew Delgado,Laredo United,85.28,183.7,86.18,192.78,462.66,Single-ply,SBD,M
Boys,89.81,7,Maximus Marchan,Laredo Nixon,89.54,167.83,106.59,181.44,455.86,Single-ply,SBD,M
Boys,89.81,8,Lauro Soto,Laredo Cigarroa,84.37,154.22,86.18,142.88,383.29,Single-ply,SBD,M
Boys,89.81,9,Braulio Solis,Laredo Martin,88,147.42,70.31,161.03,378.75,Single-ply,SBD,M
Boys,89.81,10,Carlos Valles,Cotulla,87.54,142.88,86.18,142.88,371.95,Single-ply,SBD,M
Boys,89.81,11,Mark Zapata,Laredo Martin,83.01,138.35,79.38,129.27,347,Single-ply,SBD,M
Boys,89.81,DQ,Oscar Arreola,Laredo Martin,85.28,161.03,,,,Single-ply,SBD,M
Boys,99.79,1,Joseph Martinez,Cotulla,98.88,254.01,140.61,258.55,653.17,Single-ply,SBD,M
Boys,99.79,2,Robert Ramos,Roma,99.79,249.48,117.93,210.92,578.33,Single-ply,SBD,M
Boys,99.79,3,Christian Ramos,Laredo Johnson,99.25,204.12,113.4,208.65,526.17,Single-ply,SBD,M
Boys,99.79,4,Alejandro Ayala,Laredo United South,98.43,208.65,106.59,195.04,510.29,Single-ply,SBD,M
Boys,99.79,5,Mario Gonzalez,Laredo Johnson,94.53,204.12,90.72,206.38,501.22,Single-ply,SBD,M
Boys,99.79,6,Max Blanco,Laredo Cigarroa,94.35,188.24,106.59,204.12,498.95,Single-ply,SBD,M
Boys,99.79,7,Jesus Garcia #11,Roma,95.25,192.78,97.52,185.97,476.27,Single-ply,SBD,M
Boys,99.79,8,Leo Solis,Zapata,98.43,176.9,117.93,181.44,476.27,Single-ply,SBD,M
Boys,99.79,9,Santino Palizo,Laredo Alexander,98.88,172.37,104.33,183.7,460.4,Single-ply,SBD,M
Boys,99.79,10,Josefat Vasquez,Laredo Alexander,94.35,136.08,83.91,147.42,367.41,Single-ply,SBD,M
Boys,99.79,11,Emilio Alvarez,Laredo Alexander,94.8,142.88,63.5,129.27,335.66,Single-ply,SBD,M
Boys,99.79,12,Gabriel Elizondo,Laredo Alexander,95.25,117.93,63.5,129.27,310.71,Single-ply,SBD,M
Boys,99.79,13,Xavier Rodriguez,Laredo Alexander,98.43,117.93,65.77,113.4,297.1,Single-ply,SBD,M
Boys,99.79,DQ,George Dominguez,Laredo Nixon,90.72,154.22,83.91,,,Single-ply,SBD,M
Boys,109.77,1,Luis Rios,Laredo Johnson,109.41,217.72,124.74,229.06,571.53,Single-ply,SBD,M
Boys,109.77,2,Diego Montoya,Roma,109.77,231.33,129.27,208.65,569.26,Single-ply,SBD,M
Boys,109.77,3,Rolando Galaviz,Laredo Johnson,102.97,229.06,104.33,219.99,553.38,Single-ply,SBD,M
Boys,109.77,4,Carlos Garza,Roma,106.14,204.12,138.35,195.04,537.51,Single-ply,SBD,M
Boys,109.77,5,Javier Amador,Laredo Martin,108.41,226.8,108.86,188.24,523.9,Single-ply,SBD,M
Boys,109.77,6,Emiliano Martinez,Zapata,107.05,192.78,86.18,179.17,458.13,Single-ply,SBD,M
Boys,109.77,7,Kevin Molina,Laredo United South,105.01,145.15,113.4,195.04,453.59,Single-ply,SBD,M
Boys,109.77,8,Felipe Rodriguez,Laredo Cigarroa,103.87,163.29,113.4,174.63,451.32,Single-ply,SBD,M
Boys,109.77,9,Mark Trujillo,Laredo United South,109.77,172.37,111.13,165.56,449.06,Single-ply,SBD,M
Boys,109.77,10,Carlos Gonzalez,Laredo United,107.5,151.95,120.2,142.88,415.04,Single-ply,SBD,M
Boys,109.77,11,Juan Cerna,Laredo Cigarroa,104.78,156.49,88.45,165.56,410.5,Single-ply,SBD,M
Boys,109.77,12,Justin Segovia,Laredo United South,102.74,170.1,79.38,156.49,405.97,Single-ply,SBD,M
Boys,109.77,13,Miguel Gutierrez,Laredo United South,106.14,149.69,88.45,158.76,396.89,Single-ply,SBD,M
Boys,109.77,DQ,Khalid Santiago,Laredo United South,108.18,226.8,,,,Single-ply,SBD,M
Boys,124.74,1,Baldomero Ortega,Cotulla,123.38,254.01,131.54,272.16,657.71,Single-ply,SBD,M
Boys,124.74,2,Claudio Padilla,Laredo Johnson,124.28,260.82,127.01,244.94,632.76,Single-ply,SBD,M
Boys,124.74,3,Jorge Garcia,Laredo United South,122.11,272.16,142.88,208.65,623.69,Single-ply,SBD,M
Boys,124.74,4,Martin Navarro,Zapata,117.93,240.4,147.42,219.99,607.81,Single-ply,SBD,M
Boys,124.74,5,Marcus Vara,Laredo Martin,116.57,181.44,97.52,161.03,439.98,Single-ply,SBD,M
Boys,124.74,6,Arturo Alvarez,Laredo Cigarroa,117.93,192.78,117.93,111.13,421.84,Single-ply,SBD,M
Boys,124.74,DQ,Vladamir Villanueva,Laredo United South,112.04,156.49,111.13,,,Single-ply,SBD,M
Boys,124.74+,1,Justin Trevino,Laredo Martin,139.25,283.5,136.08,219.99,639.57,Single-ply,SBD,M
Boys,124.74+,2,Enrique Paredes,Cotulla,219.99,222.26,176.9,222.26,621.42,Single-ply,SBD,M
Boys,124.74+,3,Javier Lopez,Cotulla,146.51,226.8,140.61,185.97,553.38,Single-ply,SBD,M
Boys,124.74+,4,Pablo Torrez,Laredo Johnson,161.48,244.94,99.79,199.58,544.31,Single-ply,SBD,M
Boys,124.74+,5,Juan Valadez,Laredo Martin,134.72,233.6,120.2,188.24,542.04,Single-ply,SBD,M
Boys,124.74+,6,Juan Guerra,Laredo Alexander,142.43,176.9,102.06,208.65,487.61,Single-ply,SBD,M
Boys,124.74+,7,Raymond Torres,Zapata,140.16,174.63,120.2,156.49,451.32,Single-ply,SBD,M
Boys,124.74+,DQ,Emmanuel Gomez,Laredo United South,135.17,195.04,124.74,,,Single-ply,SBD,M
Boys,124.74+,DQ,Manuel Torres,Laredo Cigarroa,129.73,,,,,Single-ply,SBD,M
Freshmen,51.71,1,Oscar Solis,Laredo United South,51.71,95.25,65.77,113.4,274.42,Single-ply,SBD,M
Freshmen,51.71,2,Nathaniel Munoz,Laredo United,47.63,83.91,45.36,104.33,233.6,Single-ply,SBD,M
Freshmen,55.79,1,Nolan Raya,Laredo United South,55.79,113.4,74.84,124.74,312.98,Single-ply,SBD,M
Freshmen,55.79,2,Abraham Arispe,Laredo United South,55.79,97.52,58.97,117.93,274.42,Single-ply,SBD,M
Freshmen,55.79,DQ,Jesus de la Rosa,Laredo Nixon,53.98,86.18,,,,Single-ply,SBD,M
Freshmen,59.87,1,Sebastian Alvarado,Laredo United,59.78,102.06,68.04,151.95,322.05,Single-ply,SBD,M
Freshmen,59.87,2,Gerardo Vera,Laredo United,58.51,111.13,72.57,136.08,319.78,Single-ply,SBD,M
Freshmen,59.87,3,Christian Martinez,Cotulla,58.51,120.2,70.31,127.01,317.51,Single-ply,SBD,M
Freshmen,59.87,4,Pete Guevara,Laredo United South,59.87,99.79,65.77,122.47,288.03,Single-ply,SBD,M
Freshmen,59.87,5,Oscar Vez,Laredo Cigarroa,57.15,102.06,56.7,113.4,272.16,Single-ply,SBD,M
Freshmen,59.87,6,Ruben Lopez,Laredo United,58.51,102.06,52.16,115.67,269.89,Single-ply,SBD,M
Freshmen,59.87,7,Abed Ponce,Laredo Johnson,58.97,88.45,61.23,104.33,254.01,Single-ply,SBD,M
Freshmen,59.87,8,Ulises Pedraza,Laredo Johnson,59.42,88.45,61.23,104.33,254.01,Single-ply,SBD,M
Freshmen,59.87,9,Mike Torres,Laredo United South,58.51,83.91,54.43,106.59,244.94,Single-ply,SBD,M
Freshmen,59.87,10,Nathaneal Santana,Laredo Johnson,58.06,63.5,58.97,92.99,215.46,Single-ply,SBD,M
Freshmen,67.13,1,Alex Saenz #2,Laredo United South,66.22,115.67,77.11,156.49,349.27,Single-ply,SBD,M
Freshmen,67.13,2,Ivan Diaz,Laredo Nixon,63.5,113.4,70.31,136.08,319.78,Single-ply,SBD,M
Freshmen,67.13,3,Michael Eller,Laredo Nixon,66.68,102.06,65.77,151.95,319.78,Single-ply,SBD,M
Freshmen,67.13,4,Jose Alfaro,Laredo United South,63.05,117.93,72.57,115.67,306.17,Single-ply,SBD,M
Freshmen,67.13,5,Miguel Terrazas,Laredo Nixon,62.14,90.72,63.5,124.74,278.96,Single-ply,SBD,M
Freshmen,67.13,6,Ezequiel Pedraza,Laredo Johnson,65.32,88.45,61.23,113.4,263.08,Single-ply,SBD,M
Freshmen,67.13,7,Adolfo Benavidez,Laredo Johnson,64.86,97.52,43.09,106.59,247.21,Single-ply,SBD,M
Freshmen,67.13,8,Pedro Salinas,Laredo Johnson,62.14,61.23,61.23,120.2,242.67,Single-ply,SBD,M
Freshmen,74.84,1,Darren Thomas,Cotulla,73.94,140.61,79.38,167.83,387.82,Single-ply,SBD,M
Freshmen,74.84,2,Isaac Tovar,Laredo Nixon,73.03,136.08,70.31,156.49,362.87,Single-ply,SBD,M
Freshmen,74.84,3,Steven Loring,Laredo United,70.31,111.13,86.18,163.29,360.61,Single-ply,SBD,M
Freshmen,74.84,4,Daniel Garza,Laredo United,69.85,136.08,65.77,154.22,356.07,Single-ply,SBD,M
Freshmen,74.84,5,Osric Tellez,Cotulla,73.94,129.27,81.65,131.54,342.46,Single-ply,SBD,M
Freshmen,74.84,6,Rey Puig,Laredo Alexander,73.94,129.27,65.77,131.54,326.59,Single-ply,SBD,M
Freshmen,74.84,7,Jesus Maciel,Laredo Martin,74.39,113.4,56.7,136.08,306.17,Single-ply,SBD,M
Freshmen,74.84,8,Steven Vega,Laredo United South,72.12,104.33,63.5,92.99,260.82,Single-ply,SBD,M
Freshmen,74.84,9,Joshua Urbina,Laredo Martin,68.04,79.38,45.36,108.86,233.6,Single-ply,SBD,M
Freshmen,82.1,1,Jesus Calderon,Laredo United,80.29,183.7,90.72,167.83,442.25,Single-ply,SBD,M
Freshmen,82.1,DQ,Adrian Guerra,Laredo Alexander,82.1,,,,,Single-ply,SBD,M
Freshmen,82.1,DQ,Oscar Beltran,Laredo Cigarroa,82.1,,,,,Single-ply,SBD,M
Freshmen,82.1,DQ,Joe Saavedra,Laredo Cigarroa,82.1,,,,,Single-ply,SBD,M
Freshmen,82.1,DQ,Pedro Lopez,Laredo United,79.83,,,,,Single-ply,SBD,M
Freshmen,89.81,1,Eric Ortega,Cotulla,85.73,172.37,97.52,183.7,453.59,Single-ply,SBD,M
Freshmen,89.81,2,Frank Rios,Laredo United South,89.36,133.81,63.5,149.69,347,Single-ply,SBD,M
Freshmen,89.81,3,Alejandro Cepeda,Laredo Nixon,83.01,131.54,65.77,147.42,344.73,Single-ply,SBD,M
Freshmen,89.81,4,Andres Rodriguez,Laredo Nixon,88.9,113.4,77.11,147.42,337.93,Single-ply,SBD,M
Freshmen,89.81,5,Rogelio Lara,Laredo Martin,86.18,111.13,70.31,142.88,324.32,Single-ply,SBD,M
Freshmen,89.81,6,Javier Lozano,Laredo Nixon,83.01,104.33,58.97,147.42,310.71,Single-ply,SBD,M
Freshmen,89.81,DQ,Santiago Olivares,Laredo Martin,89.81,,,,,Single-ply,SBD,M
Freshmen,99.79,1,Joey Riojas,Laredo United South,93.44,170.1,102.06,174.63,446.79,Single-ply,SBD,M
Freshmen,99.79,2,Levi Gallegos,Laredo United South,92.99,142.88,102.06,136.08,381.02,Single-ply,SBD,M
Freshmen,99.79,3,Trooper Meza,Laredo Alexander,98.88,120.2,74.84,181.44,376.48,Single-ply,SBD,M
Freshmen,99.79,4,Aiden Hinojosa,Laredo Alexander,98.43,145.15,77.11,142.88,365.14,Single-ply,SBD,M
Freshmen,99.79,5,Juan Villarreal #7,Laredo United,92.99,131.54,68.04,163.29,362.87,Single-ply,SBD,M
Freshmen,99.79,6,Santiago Valdivia,Laredo Nixon,92.08,124.74,63.5,142.88,331.12,Single-ply,SBD,M
Freshmen,99.79,7,Luis Jimenez,Laredo United South,97.52,111.13,83.91,136.08,331.12,Single-ply,SBD,M
Freshmen,99.79,8,Orlando Maciel,Laredo Martin,99.79,108.86,61.23,124.74,294.84,Single-ply,SBD,M
Freshmen,99.79,9,Eddie Benavides,Laredo Cigarroa,90.72,108.86,61.23,113.4,283.5,Single-ply,SBD,M
Freshmen,99.79,10,Abraham Sandoval,Laredo Johnson,96.16,81.65,45.36,108.86,235.87,Single-ply,SBD,M
Freshmen,99.79,11,Eric Sifuentes,Laredo Cigarroa,90.72,140.61,,,140.61,Single-ply,S,M
Freshmen,99.79,DQ,Eleazar Guerra,Laredo United South,99.79,170.1,106.59,,,Single-ply,SBD,M
Freshmen,109.77,1,Gerardo Enriquez,Laredo Alexander,108.41,142.88,90.72,154.22,387.82,Single-ply,SBD,M
Freshmen,109.77,2,Jacob Lopez,Laredo United,106.14,145.15,77.11,147.42,369.68,Single-ply,SBD,M
Freshmen,109.77,3,Benito Mancillas,Laredo Cigarroa,99.97,111.13,68.04,158.76,337.93,Single-ply,SBD,M
Freshmen,109.77,4,Chris Jimenez,Laredo Alexander,107.05,115.67,79.38,131.54,326.59,Single-ply,SBD,M
Freshmen,109.77,5,Jaden Arriaga,Laredo Johnson,100.24,108.86,72.57,142.88,324.32,Single-ply,SBD,M
Freshmen,109.77,6,Salvador Hernandez,Laredo Martin,109.77,102.06,61.23,145.15,308.44,Single-ply,SBD,M
Freshmen,109.77,7,Oliver Castillo,Laredo Johnson,107.95,72.57,63.5,142.88,278.96,Single-ply,SBD,M
Freshmen,109.77,DQ,Jorge Rivera,Laredo Cigarroa,109.77,,,,,Single-ply,SBD,M
Freshmen,124.74,1,Alonso Castillo,Laredo Cigarroa,122.02,219.99,99.79,176.9,496.68,Single-ply,SBD,M
Freshmen,124.74,2,Hector Salazar,Laredo United,112.04,145.15,86.18,176.9,408.23,Single-ply,SBD,M
Freshmen,124.74,3,Albert De Luna,Laredo Nixon,121.11,147.42,90.72,145.15,383.29,Single-ply,SBD,M
Freshmen,124.74,4,Daymeon Vercher,Laredo United South,122.83,115.67,83.91,170.1,369.68,Single-ply,SBD,M
Freshmen,124.74,5,Gerardo Gamboa,Laredo Martin,112.49,113.4,61.23,133.81,308.44,Single-ply,SBD,M
Freshmen,124.74,DQ,Drevan Anzaldua,Cotulla,117.03,,,,,Single-ply,SBD,M
Freshmen,124.74+,1,Christopher Castro,Laredo Nixon,138.8,154.22,77.11,142.88,374.21,Single-ply,SBD,M
Freshmen,124.74+,2,Gerardo Medrano,Laredo Johnson,127.01,113.4,83.91,142.88,340.19,Single-ply,SBD,M
Freshmen,124.74+,DQ,Gerardo Gutierrez,Laredo Martin,125.19,,,,,Single-ply,SBD,M
