Division,WeightClassKg,Place,Name,Team,BodyweightKg,Best3SquatKg,Best3BenchKg,Best3DeadliftKg,TotalKg,Equipment,Event,Sex,BirthDate
Boys,51.71,1,Alejandro Netro,New London West Rusk,51.53,140.61,56.7,124.74,322.05,Single-ply,SBD,M,
Boys,51.71,2,Jonathan Ortega,Winona,47.36,102.06,47.63,113.4,263.08,Single-ply,SBD,M,
Boys,55.79,1,Luis Ortega,Winona,54.98,115.67,72.57,142.88,331.12,Single-ply,SBD,M,
Boys,55.79,2,Vicente Ordorica,Winona,55.79,108.86,72.57,113.4,294.84,Single-ply,SBD,M,
Boys,55.79,3,Juan Ordorica,Winona,53.07,106.59,61.23,113.4,281.23,Single-ply,SBD,M,
Boys,55.79,4,Aven Blaylock,Tyler,54.98,90.72,54.43,111.13,256.28,Single-ply,SBD,M,
Boys,55.79,5,Coben Williams,Tyler Legacy,54.88,83.91,45.36,108.86,238.14,Single-ply,SBD,M,
Boys,59.87,1,Michael Lane,Linden-Kildare,59.42,176.9,77.11,163.29,417.3,Single-ply,SBD,M,
Boys,59.87,2,Nathan Page,Tyler Legacy,57.88,136.08,83.91,156.49,376.48,Single-ply,SBD,M,
Boys,59.87,3,Tristan Himes,Malakoff Cross Roads,56.97,127.01,72.57,117.93,317.51,Single-ply,SBD,M,
Boys,59.87,4,Steven Turbyfill,Malakoff Cross Roads,57.15,106.59,68.04,136.08,310.71,Single-ply,SBD,M,
Boys,67.13,1,Kane Jones,Tyler Legacy,66.22,226.8,129.27,226.8,582.87,Single-ply,SBD,M,
Boys,67.13,2,Carson Bobbitt,New London West Rusk,65.95,154.22,97.52,179.17,430.91,Single-ply,SBD,M,
Boys,67.13,3,Kyle Ritter,Ore City,65.77,154.22,95.25,174.63,424.11,Single-ply,SBD,M,
Boys,67.13,4,Nick Collins,Tyler,66.68,142.88,99.79,154.22,396.89,Single-ply,SBD,M,
Boys,67.13,5,Hunter Harkins,Henderson,67.04,149.69,90.72,149.69,390.09,Single-ply,SBD,M,
Boys,67.13,6,Josh Guardiola,Palestine Westwood,66.86,142.88,90.72,154.22,387.82,Single-ply,SBD,M,
Boys,67.13,7,Erichmans Hor,Jefferson,66.22,129.27,77.11,165.56,371.95,Single-ply,SBD,M,
Boys,67.13,8,August Adams,Malakoff Cross Roads,63.14,136.08,86.18,145.15,367.41,Single-ply,SBD,M,
Boys,67.13,9,Wesley Griffin,New London West Rusk,66.04,138.35,90.72,136.08,365.14,Single-ply,SBD,M,
Boys,67.13,10,Cullen Williams,Tyler Legacy,61.33,129.27,86.18,136.08,351.53,Single-ply,SBD,M,
Boys,67.13,11,Jordan Pullum,Winona,65.05,124.74,81.65,142.88,349.27,Single-ply,SBD,M,
Boys,67.13,12,Camben Jones,Ore City,61.23,117.93,77.11,145.15,340.19,Single-ply,SBD,M,
Boys,67.13,13,Rafael Chavez,Winona,60.6,117.93,72.57,127.01,317.51,Single-ply,SBD,M,
Boys,67.13,14,Anthony Rodriguez,Winona,63.32,120.2,74.84,120.2,315.25,Single-ply,SBD,M,
Boys,74.84,1,Trayson Wright,Overton,73.94,222.26,127.01,201.85,551.11,Single-ply,SBD,M,
Boys,74.84,2,Garrison Conner,Diana New Diana,74.84,188.24,117.93,215.46,521.63,Single-ply,SBD,M,
Boys,74.84,3,Carson Levee,Winona,71.85,215.46,108.86,190.51,514.83,Single-ply,SBD,M,
Boys,74.84,4,Cole Seider,Henderson,74.84,188.24,129.27,183.7,501.22,Single-ply,SBD,M,
Boys,74.84,5,Chance Whelchel,Tyler Legacy,74.75,179.17,129.27,181.44,489.88,Single-ply,SBD,M,
Boys,74.84,6,Elijah Bergin,Winona,71.94,192.78,90.72,204.12,487.61,Single-ply,SBD,M,
Boys,74.84,7,Josh Mata,Henderson,74.84,188.24,111.13,183.7,483.08,Single-ply,SBD,M,
Boys,74.84,8,Martin Camargo,Henderson,68.31,183.7,97.52,197.31,478.54,Single-ply,SBD,M,
Boys,74.84,9,Koal Minor,New London West Rusk,73.39,170.1,99.79,201.85,471.74,Single-ply,SBD,M,
Boys,74.84,10,Tyler Lowe,Harleton,71.21,163.29,86.18,163.29,412.77,Single-ply,SBD,M,
Boys,74.84,11,Taytor Binfect,Harleton,73.94,161.03,92.99,158.76,412.77,Single-ply,SBD,M,
Boys,74.84,12,Aj Woods,Harleton,69.22,161.03,74.84,163.29,399.16,Single-ply,SBD,M,
Boys,74.84,13,Tyler Commander,Palestine Westwood,69.76,147.42,83.91,149.69,381.02,Single-ply,SBD,M,
Boys,74.84,14,Doyle Pierce,Harleton,73.03,147.42,83.91,149.69,381.02,Single-ply,SBD,M,
Boys,74.84,15,Nathaniel Kirksey,Tyler Legacy,71.85,142.88,77.11,136.08,356.07,Single-ply,SBD,M,
Boys,74.84,DQ,Cameron Sanchez,Tyler Legacy,71.12,151.95,106.59,,,Single-ply,SBD,M,
Boys,74.84,DQ,Cj Kimble,Winona,68.49,142.88,,,,Single-ply,SBD,M,
Boys,74.84,DQ,Nick Paschall,Harleton,72.12,181.44,,,,Single-ply,SBD,M,
Boys,82.1,1,Ya'Corus Porter,Henderson,80.74,263.08,158.76,254.01,675.85,Single-ply,SBD,M,
Boys,82.1,2,Kaleb Tate,Henderson,81.19,192.78,136.08,181.44,510.29,Single-ply,SBD,M,
Boys,82.1,3,Christian Flores,Palestine Westwood,79.65,190.51,117.93,190.51,498.95,Single-ply,SBD,M,
Boys,82.1,4,Michael Littles,Winona,81.47,174.63,106.59,204.12,485.34,Single-ply,SBD,M,
Boys,82.1,5,Dominick Alvarez,Henderson,75.75,181.44,113.4,161.03,455.86,Single-ply,SBD,M,
Boys,82.1,6,Brendan Scott,Harleton,76.66,172.37,99.79,181.44,453.59,Single-ply,SBD,M,
Boys,82.1,7,Trae Smith,Jefferson,79.56,163.29,111.13,167.83,442.25,Single-ply,SBD,M,
Boys,82.1,8,Braydon Hart,Malakoff Cross Roads,78.02,158.76,97.52,170.1,426.38,Single-ply,SBD,M,
Boys,82.1,9,Jayden Nelson,Winona,80.74,158.76,79.38,170.1,408.23,Single-ply,SBD,M,
Boys,82.1,10,Cameron Ames,Tyler Legacy,80.74,147.42,90.72,147.42,385.55,Single-ply,SBD,M,
Boys,82.1,11,Isaias Sellers,Tyler,80.74,140.61,81.65,149.69,371.95,Single-ply,SBD,M,
Boys,82.1,12,Tyler Spears,Ore City,76.2,117.93,74.84,170.1,362.87,Single-ply,SBD,M,
Boys,89.81,1,Parker Key,Jefferson,86.18,226.8,138.35,229.06,594.21,Single-ply,SBD,M,
Boys,89.81,2,Dunaireon Cantley,Tyler,88.9,226.8,142.88,206.38,576.06,Single-ply,SBD,M,
Boys,89.81,3,Carter Bibb,Harleton,88.09,190.51,106.59,210.92,508.02,Single-ply,SBD,M,
Boys,89.81,4,Austin Frazier,Palestine Westwood,88.9,210.92,99.79,192.78,503.49,Single-ply,SBD,M,
Boys,89.81,5,Joe Herrera,Henderson,88.9,158.76,111.13,170.1,439.98,Single-ply,SBD,M,
Boys,89.81,6,Cade Canfield,Harleton,88.54,161.03,95.25,151.95,408.23,Single-ply,SBD,M,
Boys,89.81,7,Jett Monahan,Tyler Legacy,83.55,136.08,106.59,145.15,387.82,Single-ply,SBD,M,
Boys,89.81,8,Johnny Perez,Tyler Legacy,86,124.74,79.38,129.27,333.39,Single-ply,SBD,M,
Boys,99.79,1,Esteban Munoz,Winona,92.53,256.28,145.15,210.92,612.35,Single-ply,SBD,M,
Boys,99.79,2,Gabe Villarreal,Palestine Westwood,90.63,226.8,131.54,233.6,591.94,Single-ply,SBD,M,
Boys,99.79,3,Knox Tomlinson,Jefferson,96.89,240.4,136.08,215.46,591.94,Single-ply,SBD,M,
Boys,99.79,4,Kenneth Hawkins,Tyler Legacy,97.07,229.06,151.95,204.12,585.13,Single-ply,SBD,M,
Boys,99.79,5,Cruz Rivera,Tyler Legacy,90.72,197.31,158.76,188.24,544.31,Single-ply,SBD,M,
Boys,99.79,6,Calvin Mason,New London West Rusk,97.25,206.38,120.2,210.92,537.51,Single-ply,SBD,M,
Boys,99.79,7,Demarquay Ford,Winona,90.26,183.7,133.81,204.12,521.63,Single-ply,SBD,M,
Boys,99.79,8,Ayden Coker,Palestine Westwood,94.62,172.37,140.61,185.97,498.95,Single-ply,SBD,M,
Boys,99.79,9,Craver Green,New London West Rusk,94.8,183.7,102.06,213.19,498.95,Single-ply,SBD,M,
Boys,99.79,10,Austin Smart,Palestine Westwood,90.99,183.7,111.13,188.24,483.08,Single-ply,SBD,M,
Boys,99.79,11,Hunter Heacox,Malakoff Cross Roads,97.34,167.83,102.06,199.58,469.47,Single-ply,SBD,M,
Boys,99.79,12,Grayson Howard,Diana New Diana,99.16,167.83,106.59,165.56,439.98,Single-ply,SBD,M,
Boys,99.79,13,Josh Self,Overton,97.16,136.08,83.91,158.76,378.75,Single-ply,SBD,M,
Boys,99.79,14,Cash Acker,Tyler Legacy,99.79,136.08,86.18,154.22,376.48,Single-ply,SBD,M,
Boys,99.79,15,Sincere Ferguson,Overton,96.16,124.74,79.38,163.29,367.41,Single-ply,SBD,M,
Boys,99.79,16,Sean Kee,Overton,96.62,113.4,79.38,158.76,351.53,Single-ply,SBD,M,
Boys,99.79,17,Cason Weatherton,Henderson,93.44,,102.06,86.18,188.24,Single-ply,BD,M,
Boys,109.77,1,De'Vonta Waites,Jefferson,109.32,272.16,115.67,197.31,585.13,Single-ply,SBD,M,
Boys,109.77,2,Matthew Gomez,Palestine Westwood,104.14,213.19,131.54,226.8,571.53,Single-ply,SBD,M,
Boys,109.77,3,Isaiah Farmer,Jefferson,103.42,204.12,113.4,185.97,503.49,Single-ply,SBD,M,
Boys,109.77,4,John Taylor,Tyler,103.69,183.7,120.2,183.7,487.61,Single-ply,SBD,M,
Boys,109.77,5,VerKerious Smith,Tyler,100.97,188.24,106.59,170.1,464.93,Single-ply,SBD,M,
Boys,109.77,6,Broc Marceaux,Tyler Legacy,108.59,156.49,113.4,165.56,435.45,Single-ply,SBD,M,
Boys,109.77,7,Marfe Cornelio,Tyler,105.32,151.95,102.06,156.49,410.5,Single-ply,SBD,M,
Boys,109.77,DQ,Adain Wilson,New London West Rusk,102.78,,,,,Single-ply,SBD,M,
Boys,124.74,1,Eujayvion McAlister,Henderson,111.58,328.85,192.78,272.16,793.79,Single-ply,SBD,M,
Boys,124.74,2,Tariq Robinson,Tyler Legacy,115.85,272.16,226.8,222.26,721.21,Single-ply,SBD,M,
Boys,124.74,3,Kason Reed,New London West Rusk,116.75,192.78,111.13,226.8,530.7,Single-ply,SBD,M,
Boys,124.74,4,Nathaniel Smith,Palestine Westwood,118.21,183.7,106.59,165.56,455.86,Single-ply,SBD,M,
Boys,124.74,5,Michael Cooper,Tyler,112.94,154.22,104.33,158.76,417.3,Single-ply,SBD,M,
Boys,124.74,6,Javian Harper,Tyler,119.75,147.42,111.13,156.49,415.04,Single-ply,SBD,M,
Boys,124.74,7,David Alvarado,Malakoff Cross Roads,111.95,151.95,95.25,145.15,392.36,Single-ply,SBD,M,
Boys,124.74,8,Chris Andrade,Overton,121.11,120.2,79.38,147.42,347,Single-ply,SBD,M,
Boys,124.74,DQ,De'Braylon McDonald,Overton,118.84,226.8,,,,Single-ply,SBD,M,
Boys,139.71,1,Devin Fields,Henderson,129.64,285.76,195.04,283.5,764.3,Single-ply,SBD,M,
Boys,139.71,2,Bryce Clark,Jefferson,125.46,281.23,149.69,238.14,669.05,Single-ply,SBD,M,
Boys,139.71,3,Brock Johnson,Henderson,128.82,249.48,149.69,240.4,639.57,Single-ply,SBD,M,
Boys,139.71,4,Nicholas Cruz,Tyler,128.37,249.48,151.95,226.8,628.23,Single-ply,SBD,M,
Boys,139.71,5,Jones Kelm,Tyler Legacy,127.19,247.21,136.08,208.65,591.94,Single-ply,SBD,M,
Boys,139.71,6,RylN Carpenter,Tyler Legacy,139.25,206.38,124.74,219.99,551.11,Single-ply,SBD,M,
Boys,139.71,7,Zemetress Randle,Palestine Westwood,127.82,204.12,108.86,185.97,498.95,Single-ply,SBD,M,
Boys,139.71,8,Zach Hulschur,Jefferson,136.98,199.58,97.52,174.63,471.74,Single-ply,SBD,M,
Boys,139.71,9,Jaydon McAdams,Tyler Legacy,135.17,174.63,111.13,183.7,469.47,Single-ply,SBD,M,
Boys,139.71,10,Josh Vazquez,Malakoff Cross Roads,138.71,199.58,88.45,154.22,442.25,Single-ply,SBD,M,
Boys,139.71,11,John Gideon,Harleton,128.37,181.44,92.99,165.56,439.98,Single-ply,SBD,M,
Boys,139.71,12,Ethan Julian,Malakoff Cross Roads,127.37,158.76,81.65,147.42,387.82,Single-ply,SBD,M,
Boys,139.71+,1,Kadden Williams,Overton,170.37,247.21,136.08,208.65,591.94,Single-ply,SBD,M,
Boys,139.71+,2,John Bateman,Henderson,169.46,204.12,133.81,226.8,564.72,Single-ply,SBD,M,
Boys,139.71+,3,Brandon Rice,Jefferson,159.21,231.33,120.2,210.92,562.45,Single-ply,SBD,M,
Boys,139.71+,4,Jon Tatum,Ore City,148.78,215.46,158.76,181.44,555.65,Single-ply,SBD,M,
Boys,139.71+,5,Max Ramirez,Harleton,150.14,226.8,131.54,195.04,553.38,Single-ply,SBD,M,
Boys,139.71+,6,Fernando Rodriguez,Winona,158.76,219.99,133.81,181.44,535.24,Single-ply,SBD,M,
Boys,139.71+,7,D'Angelo Vazquez,Malakoff Cross Roads,146.96,231.33,104.33,181.44,517.1,Single-ply,SBD,M,
Boys,139.71+,8,Jacob Seaton,Tyler,146.06,199.58,113.4,161.03,474,Single-ply,SBD,M,
Boys,139.71+,9,Payton Campbell,Tyler,142.43,136.08,81.65,156.49,374.21,Single-ply,SBD,M,
Boys,,NS,Hayden Alar,Palestine Westwood,,,,,,Single-ply,SBD,M,
Boys,,NS,Anthony Guillen,Tyler Legacy,,,,,,Single-ply,SBD,M,
Boys,,NS,Ricardo De Hoyos,Jefferson,,,,,,Single-ply,SBD,M,
Boys,,NS,Landen Gerald,Overton,,,,,,Single-ply,SBD,M,
Boys,,NS,Trevor Marquez,Malakoff Cross Roads,,,,,,Single-ply,SBD,M,
Boys,,NS,Omarion Anthony,New London West Rusk,,,,,,Single-ply,SBD,M,
Boys,,NS,Cason Hughes,Ore City,,,,,,Single-ply,SBD,M,
Boys,,NS,Aden Luna,Ore City,,,,,,Single-ply,SBD,M,
Boys,,NS,Jayden Freeman,Ore City,,,,,,Single-ply,SBD,M,
