Division,WeightClassKg,Place,Name,Team,BodyweightKg,Best3SquatKg,Best3BenchKg,Best3DeadliftKg,TotalKg,Equipment,Event,Sex
Boys,51.71,1,Joel Santillan,Clifton,50.53,127.01,83.91,149.69,360.61,Single-ply,SBD,M
Boys,51.71,2,Weston Schasteen,Clifton,50.89,92.99,61.23,115.67,269.89,Single-ply,SBD,M
Boys,51.71,3,Bryce Leatherwood,Dublin,47.76,81.65,52.16,102.06,235.87,Single-ply,SBD,M
Boys,51.71,4,Carson Osborne,Glen Rose,50.94,68.04,34.02,106.59,208.65,Single-ply,SBD,M
Boys,55.79,1,Alex Schaefer,Venus,55.79,151.95,79.38,165.56,396.89,Single-ply,SBD,M
Boys,55.79,2,Jordan Bass,Godley,54.07,147.42,79.38,138.35,365.14,Single-ply,SBD,M
Boys,55.79,3,Glenn Gent,Glen Rose,54.57,95.25,52.16,136.08,283.5,Single-ply,SBD,M
Boys,55.79,4,Julian Talavera,Glen Rose,53.52,99.79,56.7,115.67,272.16,Single-ply,SBD,M
Boys,55.79,DQ,Eduardo Perez,Venus,54.61,161.03,86.18,,,Single-ply,SBD,M
Boys,59.87,1,Dillon Graves,Glen Rose,58.42,147.42,97.52,179.17,424.11,Single-ply,SBD,M
Boys,59.87,2,Isaack Santillan,Clifton,58.42,142.88,106.59,172.37,421.84,Single-ply,SBD,M
Boys,59.87,3,Rodrigo Hernandez,Hillsboro,59.69,142.88,90.72,174.63,408.23,Single-ply,SBD,M
Boys,59.87,4,Robby Brewer,Clifton,57.97,151.95,86.18,127.01,365.14,Single-ply,SBD,M
Boys,59.87,5,Isaiah Nix,Dublin,59.6,136.08,77.11,149.69,362.87,Single-ply,SBD,M
Boys,59.87,6,Christian Perez,Dublin,55.97,108.86,56.7,140.61,306.17,Single-ply,SBD,M
Boys,59.87,7,Abid Corrujedo,Glen Rose,59.56,115.67,72.57,115.67,303.91,Single-ply,SBD,M
Boys,59.87,8,Brayden Bell,Godley,56.7,104.33,54.43,111.13,269.89,Single-ply,SBD,M
Boys,67.13,1,Israel Castillo,Venus,67.04,190.51,88.45,179.17,458.13,Single-ply,SBD,M
Boys,67.13,2,Max Lauderdale,Glen Rose,65.95,136.08,95.25,179.17,410.5,Single-ply,SBD,M
Boys,67.13,3,David Barrera,Venus,67.04,161.03,83.91,151.95,396.89,Single-ply,SBD,M
Boys,67.13,4,Javier Trejo,Hillsboro,62.32,127.01,86.18,167.83,381.02,Single-ply,SBD,M
Boys,67.13,5,Jacob Merrill,Glen Rose,66.77,136.08,88.45,156.49,381.02,Single-ply,SBD,M
Boys,67.13,6,Nicholas Salyer,Tolar,65.14,147.42,83.91,147.42,378.75,Single-ply,SBD,M
Boys,67.13,7,Holden Rogers,Clifton,61.42,136.08,74.84,158.76,369.68,Single-ply,SBD,M
Boys,67.13,8,Weston Halcom,Glen Rose,64.46,136.08,81.65,149.69,367.41,Single-ply,SBD,M
Boys,67.13,9,Colton Sutton,Venus,66.41,120.2,61.23,149.69,331.12,Single-ply,SBD,M
Boys,67.13,10,Christian Moseley,Glen Rose,67.13,127.01,77.11,124.74,328.85,Single-ply,SBD,M
Boys,67.13,11,Cameron Buck,Venus,63.87,120.2,61.23,127.01,308.44,Single-ply,SBD,M
Boys,67.13,DQ,Braylen Meador,Glen Rose,65.59,106.59,,140.61,,Single-ply,SBD,M
Boys,67.13,DQ,Max Thompson,Maypearl,65.41,,,142.88,,Single-ply,SBD,M
Boys,74.84,1,Emanuel Silva,Venus,74.75,219.99,113.4,206.38,539.77,Single-ply,SBD,M
Boys,74.84,2,Treston Horn,Clifton,72.48,161.03,113.4,158.76,433.18,Single-ply,SBD,M
Boys,74.84,3,Humberto Mancilla,Hillsboro,70.4,129.27,92.99,154.22,376.48,Single-ply,SBD,M
Boys,74.84,4,Ricky Douglas,Glen Rose,74.75,142.88,88.45,142.88,374.21,Single-ply,SBD,M
Boys,74.84,5,Jose Zavala,Glen Rose,72.3,113.4,72.57,136.08,322.05,Single-ply,SBD,M
Boys,74.84,6,Gunner Castleberry,Godley,70.94,106.59,79.38,124.74,310.71,Single-ply,SBD,M
Boys,82.1,1,Jacob Riley,Dublin,79.38,190.51,106.59,249.48,546.58,Single-ply,SBD,M
Boys,82.1,2,Victor De Los Santos,Glen Rose,80.2,188.24,97.52,176.9,462.66,Single-ply,SBD,M
Boys,82.1,3,Christian Vazquez,Dublin,80.74,172.37,104.33,163.29,439.98,Single-ply,SBD,M
Boys,82.1,4,Johnny Jurado,Dublin,81.47,167.83,86.18,176.9,430.91,Single-ply,SBD,M
Boys,82.1,5,Nolan Underwood,Venus,77.11,147.42,90.72,181.44,419.57,Single-ply,SBD,M
Boys,82.1,6,Dakota Paschall,Glen Rose,77.75,158.76,90.72,170.1,419.57,Single-ply,SBD,M
Boys,82.1,7,Javin Hebert,Godley,77.56,170.1,81.65,154.22,405.97,Single-ply,SBD,M
Boys,82.1,8,Jess Niedziela,Glen Rose,82.05,147.42,83.91,161.03,392.36,Single-ply,SBD,M
Boys,82.1,9,Dustin Greeson,Maypearl,76.38,136.08,77.11,158.76,371.95,Single-ply,SBD,M
Boys,82.1,DQ,Devin Lummus,Godley,80.47,195.04,,,,Single-ply,SBD,M
Boys,89.81,1,Jose Alcantar,Venus,87.91,219.99,122.47,215.46,557.92,Single-ply,SBD,M
Boys,89.81,2,Ingnacio Carmona,Hillsboro,85.73,210.92,127.01,201.85,539.77,Single-ply,SBD,M
Boys,89.81,3,Chris Flores,Hillsboro,89.09,204.12,129.27,185.97,519.36,Single-ply,SBD,M
Boys,89.81,4,Rolando Ramirez,Hillsboro,85.55,195.04,108.86,195.04,498.95,Single-ply,SBD,M
Boys,89.81,5,Tanner Stroud,Glen Rose,89.58,174.63,127.01,195.04,496.68,Single-ply,SBD,M
Boys,89.81,6,Hunter Schneck,Godley,83.91,170.1,124.74,185.97,480.81,Single-ply,SBD,M
Boys,89.81,7,Bodee Humphreys,Clifton,85.09,176.9,108.86,176.9,462.66,Single-ply,SBD,M
Boys,89.81,8,Erik Fisk,Godley,87.91,185.97,95.25,165.56,446.79,Single-ply,SBD,M
Boys,89.81,9,Hayden Williams,Tolar,84.1,165.56,88.45,165.56,419.57,Single-ply,SBD,M
Boys,89.81,10,Daniel de la Garza,Glen Rose,89.58,163.29,102.06,154.22,419.57,Single-ply,SBD,M
Boys,89.81,11,Dylan Ibarra,Glen Rose,89.77,149.69,95.25,158.76,403.7,Single-ply,SBD,M
Boys,89.81,12,Ylee Muro,Dublin,82.83,145.15,90.72,158.76,394.63,Single-ply,SBD,M
Boys,89.81,13,Grant McGarity,Glen Rose,89.27,149.69,72.57,156.49,378.75,Single-ply,SBD,M
Boys,89.81,DQ,Logan Pendley,Venus,86.18,,,,,Single-ply,SBD,M
Boys,99.79,1,Mason King,Tolar,97.98,233.6,142.88,231.33,607.81,Single-ply,SBD,M
Boys,99.79,2,Guadalupe Silva,Venus,97.52,235.87,136.08,226.8,598.74,Single-ply,SBD,M
Boys,99.79,3,Hunter Ringo,Clifton,90.63,195.04,124.74,217.72,537.51,Single-ply,SBD,M
Boys,99.79,4,Tony Cortez,Hillsboro,99.25,208.65,124.74,199.58,532.97,Single-ply,SBD,M
Boys,99.79,5,Jonah Wilson,Glen Rose,98.25,183.7,127.01,172.37,483.08,Single-ply,SBD,M
Boys,99.79,6,Zac Powell,Glen Rose,98.52,172.37,104.33,183.7,460.4,Single-ply,SBD,M
Boys,99.79,7,Tony Ramos #3,Glen Rose,93.17,120.2,90.72,140.61,351.53,Single-ply,SBD,M
Boys,99.79,8,Jacob Pena,Glen Rose,93.8,127.01,79.38,142.88,349.27,Single-ply,SBD,M
Boys,109.77,1,Matt Willis,Glen Rose,109.68,242.67,127.01,249.48,619.15,Single-ply,SBD,M
Boys,109.77,2,Ramiro Reyes,Hillsboro,104.6,238.14,124.74,231.33,594.21,Single-ply,SBD,M
Boys,109.77,3,Nick Lara,Glen Rose,106.14,206.38,138.35,185.97,530.7,Single-ply,SBD,M
Boys,109.77,4,Isaiah Cisneroz,Dublin,109.13,219.99,102.06,170.1,492.15,Single-ply,SBD,M
Boys,109.77,DQ,Isaac Navarette,Glen Rose,105.51,149.69,,149.69,,Single-ply,SBD,M
Boys,124.74,1,Ethan Price,Dublin,113.49,260.82,204.12,238.14,703.07,Single-ply,SBD,M
Boys,124.74,2,Miguel Guevara,Tolar,115.3,231.33,140.61,251.74,623.69,Single-ply,SBD,M
Boys,124.74,3,Hayden Shaw,Glen Rose,117.39,208.65,97.52,199.58,505.76,Single-ply,SBD,M
Boys,124.74,4,Stran Burrow,Dublin,123.74,170.1,97.52,167.83,435.45,Single-ply,SBD,M
Boys,124.74,5,Bryen Healey,Dublin,121.56,192.78,61.23,170.1,424.11,Single-ply,SBD,M
Boys,124.74,6,Braden Anderson,Tolar,114.85,156.49,79.38,136.08,371.95,Single-ply,SBD,M
Boys,124.74+,1,Isais Hernandez,Hillsboro,134.54,290.3,151.95,260.82,703.07,Single-ply,SBD,M
Boys,124.74+,2,Justin Huckabee,Glen Rose,127.46,249.48,142.88,244.94,637.3,Single-ply,SBD,M
Boys,124.74+,3,Juan Rodriguez,Clifton,149.87,210.92,136.08,188.24,535.24,Single-ply,SBD,M
Boys,124.74+,4,Cole Evert,Glen Rose,127.55,172.37,90.72,170.1,433.18,Single-ply,SBD,M
